…
Read the data from Dvir et al.

``` r
dvir_data <- readxl::read_excel("../tables/sd01.xlsx") %>% 
  print()
```

    ## # A tibble: 2,041 x 3
    ##    sequence_variant mean_protein_abundance total_reads
    ##    <chr>                             <dbl>       <dbl>
    ##  1 CCGACCCGTT                         9.73        1215
    ##  2 AATCTACGTT                        11.7          398
    ##  3 ATCGGAAGTT                        11.5          190
    ##  4 TTCCAGCCTT                         3.86         332
    ##  5 CTTACACCTT                         2.52        2241
    ##  6 AAAAAACCTT                         7.84        3278
    ##  7 ACGATCACTT                         8.19         935
    ##  8 ATCATCACTT                         7.35         610
    ##  9 CGACCATATT                         7.43         864
    ## 10 AAAATCCATT                        11.7         1453
    ## # ... with 2,031 more rows

The `sequence_variant` column has the 10 nt preceding the start codon. Average protein abundance over all positions except the last 4 nt. Then arrange from highest to lowest expression.

``` r
dvir_data <- dvir_data %>% 
  mutate(kozak = str_extract(sequence_variant, "\\w{4}$")) %>% 
  group_by(kozak) %>% 
  summarize(exp = mean(mean_protein_abundance), 
            se_exp = sd(mean_protein_abundance)/ sqrt(dplyr::n() - 1)) %>% 
  arrange(desc(exp)) %>% 
  print()
```

    ## # A tibble: 211 x 3
    ##    kozak   exp  se_exp
    ##    <chr> <dbl>   <dbl>
    ##  1 TATA   12.5  0.0972
    ##  2 CAAA   11.7  0.213 
    ##  3 CGAA   11.6  0.282 
    ##  4 GAAA   11.6  0.318 
    ##  5 AAAA   11.6  0.235 
    ##  6 AGAA   11.6  0.162 
    ##  7 AGTT   11.5 NA     
    ##  8 TAAA   11.4  0.551 
    ##  9 CATA   11.4  0.344 
    ## 10 AAAT   11.4  0.293 
    ## # ... with 201 more rows
…
