…
``` r
data <- "../../../tables/htseq/initiation_pgk1_no_insert/" %>% 
  list.files(pattern = ".tsv", full.names = T) %>% 
  enframe("sno", "file") %>% 
  mutate(barcode = str_extract(file, "(?<=/)[ACTG]{6}")) %>% 
  mutate(data = map(file, read_tsv)) %>% 
  left_join(sampleannotations, by = "barcode") %>% 
  filter(is.na(row) & is.na(column)) %>%
  select(-sno, -file, -barcode) %>% 
  unnest() %>% 
  print()
```

    ## # A tibble: 8,417 x 9
    ##    sample type  row   column cycles primer  count gene        init   
    ##    <chr>  <chr> <chr> <chr>   <int> <chr>   <int> <chr>       <chr>  
    ##  1 hp13   gdna  <NA>  <NA>       22 oAS132 357901 his3        CAAACTG
    ##  2 hp13   gdna  <NA>  <NA>       22 oAS132 201241 his3        TTGCATG
    ##  3 hp13   gdna  <NA>  <NA>       22 oAS132 179557 his3        GGATATG
    ##  4 hp13   gdna  <NA>  <NA>       22 oAS132 177094 his3        TGGCATG
    ##  5 hp13   gdna  <NA>  <NA>       22 oAS132 144612 his3        CAATATG
    ##  6 hp13   gdna  <NA>  <NA>       22 oAS132 141188 his3        CAGGATG
    ##  7 hp13   gdna  <NA>  <NA>       22 oAS132 134211 his3        TGGTATG
    ##  8 hp13   gdna  <NA>  <NA>       22 oAS132 119295 his3        TAATATG
    ##  9 hp13   gdna  <NA>  <NA>       22 oAS132 109715 optmkate2   GTCAATG
    ## 10 hp13   gdna  <NA>  <NA>       22 oAS132  95868 deoptmkate2 GGTAATG
    ## # ... with 8,407 more rows
…
