…
Read protein count data
-----------------------

``` r
psr_data <- read_tsv("tables/psr_stats.tsv") %>% 
  print()
```

    ## # A tibble: 90 x 6
    ##    sim_id mean_p_per_m sd_p_per_m total_p total_time     psr
    ##     <int>        <int> <chr>        <int>      <int>   <dbl>
    ##  1      0         3723 <NA>          3723     999853 0.00372
    ##  2      1         7280 <NA>          7280     999973 0.00728
    ##  3     10         7134 <NA>          7134     999900 0.00714
    ##  4     11        13648 <NA>         13648     999993 0.0136 
    ##  5     12        23481 <NA>         23481     999985 0.0235 
    ##  6     13        35552 <NA>         35552     999983 0.0356 
    ##  7     14        45035 <NA>         45035     999997 0.0450 
    ##  8     15        46326 <NA>         46326     999996 0.0463 
    ##  9     16        41519 <NA>         41519     999999 0.0415 
    ## 10     17        28391 <NA>         28391     746837 0.0380 
    ## # ... with 80 more rows
…
  rename(sim_id = X1) %>%
  mutate(k_elong_stall = str_split(k_elong_stall, ",")) %>%
  mutate(k_elong_stall = map(k_elong_stall, as.numeric)) %>%
  mutate(k_elong_stall = map(k_elong_stall, function(x) unique(x))) %>%
  unnest() %>%
  mutate(x_stall = stringr::str_split(x_stall, ',')) %>%
  mutate(k_stall = as.factor(k_elong_stall / as.numeric(n_stall))) %>%
  filter(n_stall <= 6) %>% 
  mutate(n_stall = factor(n_stall)) %>%
  select(sim_id, k_init, k_elong_stall, k_stall, x_stall, n_stall,
         preterm_intact_model, preterm_intact_rate) %>%
  print()
```

    ## # A tibble: 54 x 8
    ##    sim_id  k_init k_elong_stall k_stall x_stall n_stall preterm_intact_…
    ##     <int>   <dbl>         <dbl> <fct>   <list>  <fct>   <chr>           
    ##  1      0 0.00391           0.1 0.1     <chr [… 1       hit5            
    ##  2      1 0.00781           0.1 0.1     <chr [… 1       hit5            
    ##  3      2 0.0156            0.1 0.1     <chr [… 1       hit5            
    ##  4      3 0.0312            0.1 0.1     <chr [… 1       hit5            
    ##  5      4 0.0625            0.1 0.1     <chr [… 1       hit5            
    ##  6      5 0.125             0.1 0.1     <chr [… 1       hit5            
    ##  7      6 0.25              0.1 0.1     <chr [… 1       hit5            
    ##  8      7 0.5               0.1 0.1     <chr [… 1       hit5            
    ##  9      8 1                 0.1 0.1     <chr [… 1       hit5            
    ## 10      9 0.00391           0.2 0.1     <chr [… 2       hit5            
    ## # ... with 44 more rows, and 1 more variable: preterm_intact_rate <int>

Combine all data into a single table
------------------------------------

``` r
data <- annotations %>% 
  left_join(psr_data, by = "sim_id") %>% 
  print()
```

    ## # A tibble: 54 x 13
    ##    sim_id  k_init k_elong_stall k_stall x_stall n_stall preterm_intact_…
    ##     <int>   <dbl>         <dbl> <fct>   <list>  <fct>   <chr>           
    ##  1      0 0.00391           0.1 0.1     <chr [… 1       hit5            
    ##  2      1 0.00781           0.1 0.1     <chr [… 1       hit5            
    ##  3      2 0.0156            0.1 0.1     <chr [… 1       hit5            
    ##  4      3 0.0312            0.1 0.1     <chr [… 1       hit5            
    ##  5      4 0.0625            0.1 0.1     <chr [… 1       hit5            
    ##  6      5 0.125             0.1 0.1     <chr [… 1       hit5            
    ##  7      6 0.25              0.1 0.1     <chr [… 1       hit5            
    ##  8      7 0.5               0.1 0.1     <chr [… 1       hit5            
    ##  9      8 1                 0.1 0.1     <chr [… 1       hit5            
    ## 10      9 0.00391           0.2 0.1     <chr [… 2       hit5            
    ## # ... with 44 more rows, and 6 more variables: preterm_intact_rate <int>,
    ## #   mean_p_per_m <int>, sd_p_per_m <chr>, total_p <int>, total_time <int>,
    ## #   psr <dbl>
…
