…
``` r
data <- list.files("output/", pattern = "rxns.tsv$", full.names = T) %>% 
  enframe("sno", "file") %>% 
  mutate(sim.id = str_extract(file, "(?<=tasep_)[[:digit:]]+"),
         network = str_detect(file, "connect")) %>% 
  mutate(data = map(file, read_tsv)) %>% 
  select(-file, -sno) %>% 
  unnest() %>% 
  type_convert() %>% 
  print()
```

    ## # A tibble: 371,943 x 8
    ##    sim.id network  line  cputime  time rxn                    mol   mol_id
    ##     <int> <lgl>   <int>    <dbl> <dbl> <chr>                  <chr>  <int>
    ##  1      0 FALSE       1 0.000249  491. transcription          mrna       4
    ##  2      0 FALSE       2 0.000573  492. initiation             mrna       4
    ##  3      0 FALSE      39 0.00759   495. initiation             mrna       4
    ##  4      0 FALSE      74 0.0190    496. initiation             mrna       4
    ##  5      0 FALSE     141 0.0500    499. initiation             mrna       4
    ##  6      0 FALSE     150 0.0555    499. preterm_no_hit_intact… mrna       4
    ##  7      0 FALSE     192 0.0751    501. initiation             mrna       4
    ##  8      0 FALSE     218 0.0910    501. collision_48           mrna       4
    ##  9      0 FALSE     246 0.108     502. initiation             mrna       4
    ## 10      0 FALSE     251 0.112     502. collision_55           mrna       4
    ## # ... with 371,933 more rows
…
plot_data <- data %>% 
  left_join(annotations, by = c("sim.id", "network")) %>% 
  filter(l_mrna == 300) %>% 
  filter(str_detect(rxn, "^term")) %>% 
  select(network, time) %>% 
  group_by(network) %>% 
  mutate(n_protein = 1:n()) %>% 
  ungroup() %>% 
  mutate(n_protein = if_else(network == T, n_protein + 30, as.numeric(n_protein))) %>% 
  mutate_if(is.logical, funs(if_else(., "Yes", "No"))) %>% 
  mutate(strategy = paste0("network: ", network)) %>% 
  print()
```

    ## # A tibble: 1,686 x 4
    ##    network  time n_protein strategy   
    ##    <chr>   <dbl>     <dbl> <chr>      
    ##  1 No       529.        1. network: No
    ##  2 No       546.        2. network: No
    ##  3 No       550.        3. network: No
    ##  4 No       558.        4. network: No
    ##  5 No       584.        5. network: No
    ##  6 No       590.        6. network: No
    ##  7 No       597.        7. network: No
    ##  8 No       609.        8. network: No
    ##  9 No       610.        9. network: No
    ## 10 No       625.       10. network: No
    ## # ... with 1,676 more rows
…
