…
# this folder contains the data and annotations
fcs_file_folder <- "../../data/flow/10xaag_wt/"
```

Read data
=========

``` r
flowdata  <- read_tsv(paste0(fcs_file_folder, '/data.tsv.xz')) %>% 
  print()
```

    ## # A tibble: 660,000 x 7
    ##    plate well   FSC.A  SSC.A FITC.A PE.Texas.Red.A  Time
    ##    <int> <chr>  <int>  <int>  <int>          <int> <dbl>
    ##  1     1 B2     41718  37703     57             41  3.04
    ##  2     1 B2     20876  14209      7            105  3.04
    ##  3     1 B2     34889  22390     56            194  3.04
    ##  4     1 B2     44640  49289    168             15  3.05
    ##  5     1 B2     30240  35159     79             23  3.06
    ##  6     1 B2    130783 109650    333            131  3.08
    ##  7     1 B2     51243  49906     63             19  3.12
    ##  8     1 B2     41055  45669     79            -10  3.14
    ##  9     1 B2     40873  35228     82            -31  3.16
    ## 10     1 B2     36060  27464    131             87  3.16
    ## # ... with 659,990 more rows

Read annotations
================

``` r
annotations  <- read_tsv(paste0(fcs_file_folder, '/annotations.tsv')) %>% 
  print()
```

    ## # A tibble: 132 x 7
    ##    plate well  strain  replicate initiationmutation codonmutation gene   
    ##    <int> <chr> <chr>       <int> <chr>              <chr>         <chr>  
    ##  1     1 B2    by4741          1 CAAA               <NA>          <NA>   
    ##  2     1 B3    schp15          1 CAAA               <NA>          <NA>   
    ##  3     1 B4    schp19          1 CAAA               cgg           maxhis3
    ##  4     1 B5    schp20          1 CAAA               aga           maxhis3
    ##  5     1 B7    schp674         1 CAAA               aag           pgk1   
    ##  6     1 B8    schp675         1 CCGC               aag           pgk1   
    ##  7     1 B9    schp676         1 CCAA               aag           pgk1   
    ##  8     1 B10   schp677         1 CCAC               aag           pgk1   
    ##  9     1 B11   schp678         1 CCGA               aag           pgk1   
    ## 10     1 C2    schp679         1 CTGC               aag           pgk1   
    ## # ... with 122 more rows
…
``` r
by_file <- flowdata  %>% 
  # group by each plate and well
  group_by(plate, well) %>% 
  select(FITC.A, PE.Texas.Red.A) %>% 
  # calculate mean
  summarise_all(mean) %>% 
  # rename
  rename('yfp' = FITC.A, 'rfp' = PE.Texas.Red.A) %>% 
  # join annotations
  left_join(annotations, by = c('plate', 'well')) %>% 
  print()
```

    ## # A tibble: 66 x 9
    ## # Groups:   plate [?]
    ##    plate well     yfp    rfp strain replicate initiationmutat…
    ##    <int> <chr>  <dbl>  <dbl> <chr>      <int> <chr>           
    ##  1     1 B10   4.38e3 2.07e4 schp6…         1 CCAC            
    ##  2     1 B11   4.81e3 2.15e4 schp6…         1 CCGA            
    ##  3     1 B2    6.64e1 2.85e1 by4741         1 CAAA            
    ##  4     1 B3    2.67e2 2.14e4 schp15         1 CAAA            
    ##  5     1 B4    2.33e3 1.88e4 schp19         1 CAAA            
    ##  6     1 B5    2.06e4 1.88e4 schp20         1 CAAA            
    ##  7     1 B7    1.66e3 2.02e4 schp6…         1 CAAA            
    ##  8     1 B8    4.14e3 2.14e4 schp6…         1 CCGC            
    ##  9     1 B9    3.12e3 2.07e4 schp6…         1 CCAA            
    ## 10     1 C10   5.02e3 2.11e4 schp6…         1 CCGA            
    ## # ... with 56 more rows, and 2 more variables: codonmutation <chr>,
    ## #   gene <chr>
…
  # calculate mean and standard error
  group_by(strain) %>% 
  mutate(mean_yfp = mean(yfp), 
         mean_rfp = mean(rfp), 
         mean_ratio = mean(yfp_rfp_ratio), 
         se_yfp = std.error(yfp), 
         se_rfp = std.error(rfp),
         se_ratio = std.error(yfp_rfp_ratio),
         n = n()) %>% 
  slice(1) %>% 
  ungroup() %>% 
  print()
```

    ## # A tibble: 22 x 17
    ##    plate well      yfp     rfp strain replicate initiationmutat…
    ##    <int> <chr>   <dbl>   <dbl> <chr>      <int> <chr>           
    ##  1     1 B2    -1.98e2 -4.58e0 by4741         1 CAAA            
    ##  2     1 B3     2.93e0  2.13e4 schp15         1 CAAA            
    ##  3     1 B4     2.06e3  1.87e4 schp19         1 CAAA            
    ##  4     1 B5     2.04e4  1.87e4 schp20         1 CAAA            
    ##  5     1 B7     1.39e3  2.02e4 schp6…         1 CAAA            
    ##  6     1 B8     3.87e3  2.14e4 schp6…         1 CCGC            
    ##  7     1 B9     2.86e3  2.07e4 schp6…         1 CCAA            
    ##  8     1 B10    4.12e3  2.07e4 schp6…         1 CCAC            
    ##  9     1 B11    4.54e3  2.15e4 schp6…         1 CCGA            
    ## 10     1 C2     2.60e3  2.09e4 schp6…         1 CTGC            
    ## # ... with 12 more rows, and 10 more variables: codonmutation <chr>,
    ## #   gene <chr>, mean_yfp <dbl>, mean_rfp <dbl>, yfp_rfp_ratio <dbl>,
    ## #   mean_ratio <dbl>, se_yfp <dbl>, se_rfp <dbl>, se_ratio <dbl>, n <int>
…
