…
# this folder contains the data and annotations
fcs_file_folder <- "../../data/flow/5xcgg_asc1ko/"
```

Read data
=========

``` r
flowdata  <- read_tsv(paste0(fcs_file_folder, '/data.tsv.xz')) %>% 
  print()
```

    ## # A tibble: 880,000 x 7
    ##    plate well   FSC.A  SSC.A FITC.A PE.Texas.Red.A  Time
    ##    <int> <chr>  <int>  <int>  <int>          <int> <dbl>
    ##  1     1 B2     79751  57828    107            -43  3.02
    ##  2     1 B2     35978  30375    127            -66  3.02
    ##  3     1 B2    130616 135580    261            157  3.02
    ##  4     1 B2     42434  19568    -43             97  3.04
    ##  5     1 B2     49975  31281     65            136  3.04
    ##  6     1 B2     45023  44547    140           -107  3.06
    ##  7     1 B2     47264  24246    113            -95  3.06
    ##  8     1 B2     39360  35348     72             65  3.07
    ##  9     1 B2     55517  50396    119            114  3.07
    ## 10     1 B2     51899  41092    196             28  3.08
    ## # ... with 879,990 more rows

Read annotations
================

``` r
annotations  <- read_tsv(paste0(fcs_file_folder, '/annotations.tsv')) %>% 
  print()
```

    ## # A tibble: 88 x 8
    ##    plate well  strain replicate initiationmutat… codonmutation gene 
    ##    <int> <chr> <chr>      <int> <chr>            <chr>         <chr>
    ##  1     1 B2    by4741         1 CAAA             <NA>          <NA> 
    ##  2     1 B3    schp15         1 CAAA             <NA>          <NA> 
    ##  3     1 B4    schp19         1 CAAA             cgg           maxh…
    ##  4     1 B5    schp20         1 CAAA             aga           maxh…
    ##  5     1 B7    schp5…         1 CAAA             aga           pgk1 
    ##  6     1 B8    schp5…         1 CAAA             cgg           pgk1 
    ##  7     1 B9    schp5…         1 CCGA             cgg           pgk1 
    ##  8     1 B10   schp5…         1 CCGC             cgg           pgk1 
    ##  9     1 B11   schp5…         1 CCAA             cgg           pgk1 
    ## 10     1 C2    schp5…         1 CCAC             cgg           pgk1 
    ## # ... with 78 more rows, and 1 more variable: knockout <chr>
…
``` r
by_file <- flowdata  %>% 
  # group by each plate and well
  group_by(plate, well) %>% 
  select(FITC.A, PE.Texas.Red.A) %>% 
  # calculate mean
  summarise_all(mean) %>% 
  # rename
  rename('yfp' = FITC.A, 'rfp' = PE.Texas.Red.A) %>% 
  # join annotations
  left_join(annotations, by = c('plate', 'well')) %>% 
  print()
```

    ## # A tibble: 88 x 10
    ## # Groups:   plate [?]
    ##    plate well     yfp    rfp strain replicate initiationmutat…
    ##    <int> <chr>  <dbl>  <dbl> <chr>      <int> <chr>           
    ##  1     1 B10   11445. 2.02e4 schp5…         1 CCGC            
    ##  2     1 B11   20449. 2.12e4 schp5…         1 CCAA            
    ##  3     1 B2      115. 2.97e1 by4741         1 CAAA            
    ##  4     1 B3      370. 1.64e4 schp15         1 CAAA            
    ##  5     1 B4     3637. 1.63e4 schp19         1 CAAA            
    ##  6     1 B5    29386. 1.56e4 schp20         1 CAAA            
    ##  7     1 B7    19270. 3.15e4 schp5…         1 CAAA            
    ##  8     1 B8    19190. 3.06e4 schp5…         1 CAAA            
    ##  9     1 B9    12528. 1.90e4 schp5…         1 CCGA            
    ## 10     1 C10   15749. 2.03e4 schp5…         1 CCGA            
    ## # ... with 78 more rows, and 3 more variables: codonmutation <chr>,
    ## #   gene <chr>, knockout <chr>
…
  # calculate mean and standard error
  group_by(strain) %>% 
  mutate(mean_yfp = mean(yfp), 
         mean_rfp = mean(rfp), 
         mean_ratio = mean(yfp_rfp_ratio), 
         se_yfp = std.error(yfp), 
         se_rfp = std.error(rfp),
         se_ratio = std.error(yfp_rfp_ratio),
         n = n()) %>% 
  slice(1) %>% 
  ungroup() %>% 
  print()
```

    ## # A tibble: 22 x 18
    ##    plate well      yfp     rfp strain replicate initiationmutat…
    ##    <int> <chr>   <dbl>   <dbl> <chr>      <int> <chr>           
    ##  1     1 B2    -2.34e2 -8.47e0 by4741         1 CAAA            
    ##  2     1 B3     2.13e1  1.63e4 schp15         1 CAAA            
    ##  3     1 B4     3.29e3  1.62e4 schp19         1 CAAA            
    ##  4     1 B5     2.90e4  1.55e4 schp20         1 CAAA            
    ##  5     2 B7     2.40e4  2.09e4 schp5…         2 CAAA            
    ##  6     2 B8     2.68e4  2.13e4 schp5…         2 CAAA            
    ##  7     1 B9     1.22e4  1.90e4 schp5…         1 CCGA            
    ##  8     1 B10    1.11e4  2.01e4 schp5…         1 CCGC            
    ##  9     1 B11    2.01e4  2.11e4 schp5…         1 CCAA            
    ## 10     1 C2     1.39e4  1.93e4 schp5…         1 CCAC            
    ## # ... with 12 more rows, and 11 more variables: codonmutation <chr>,
    ## #   gene <chr>, knockout <chr>, mean_yfp <dbl>, mean_rfp <dbl>,
    ## #   yfp_rfp_ratio <dbl>, mean_ratio <dbl>, se_yfp <dbl>, se_rfp <dbl>,
    ## #   se_ratio <dbl>, n <int>
…
