…
# intiiation sites are arranged in this order
initiationmutation_order <- seq(1,8)
names(initiationmutation_order) <- toupper(c( 'ctgc', 'ccgc', 
                              'acgc', 'ccga', 'ccac', 'ccaa', 'caaa', 'aaaa'))
```

Read data
=========

``` r
flowdata  <- read_tsv(paste0(fcs_file_folder, '/data.tsv')) %>% 
  print()
```

    ## # A tibble: 960,000 x 7
    ##    plate well   FSC.A  SSC.A FITC.A PE.Texas.Red.A  Time
    ##    <int> <chr>  <int>  <int>  <int>          <int> <dbl>
    ##  1     1 B2     45525  37513      0           9906  3.03
    ##  2     1 B2     56178  27069      0          14479  3.05
    ##  3     1 B2    108310 110442      0          27619  3.10
    ##  4     1 B2     43568  40939      0          22695  3.27
    ##  5     1 B2     67495  59680      0          14446  3.33
    ##  6     1 B2     47252  41388      0          10573  3.35
    ##  7     1 B2     71405  50011      0          11321  3.36
    ##  8     1 B2     24110  26203      0           8581  3.39
    ##  9     1 B2     54332  31787      0           8973  3.40
    ## 10     1 B2     36466  30372      0          12573  3.44
    ## # ... with 959,990 more rows

Read annotations
================

``` r
annotations  <- read_tsv(paste0(fcs_file_folder, '/annotations.tsv')) %>% 
  print()
```

    ## # A tibble: 96 x 8
    ##    plate well  strain  replicate initiationmutat… codonmutation stallsites
    ##    <int> <chr> <chr>       <int> <chr>            <chr>         <chr>     
    ##  1     1 B2    schp15          1 CAAA             <NA>          -         
    ##  2     1 B3    schp19          1 CAAA             cgg           -         
    ##  3     1 B4    schp20          1 CAAA             aga           -         
    ##  4     1 B5    schp76          1 CAAA             aga           -         
    ##  5     1 B10   schp266         1 CCGA             cgg           5         
    ##  6     1 C5    schp271         1 CCGC             cgg           5         
    ##  7     1 C10   schp276         1 CCAA             cgg           5         
    ##  8     1 D5    schp281         1 CCAC             cgg           5         
    ##  9     1 D10   schp286         1 CTGC             cgg           5         
    ## 10     1 E5    schp291         1 AAAA             cgg           5         
    ## # ... with 86 more rows, and 1 more variable: gene <chr>
…
``` r
by_file <- flowdata  %>% 
  # group by each plate and well
  group_by(plate, well) %>% 
  select(FITC.A, PE.Texas.Red.A) %>% 
  # calculate mean
  summarise_all(mean) %>% 
  # rename
  rename('yfp' = FITC.A, 'rfp' = PE.Texas.Red.A) %>% 
  # join annotations
  left_join(annotations, by = c('plate', 'well')) %>% 
  print()
```

    ## # A tibble: 96 x 10
    ## # Groups:   plate [?]
    ##    plate well     yfp    rfp strain  replicate initiationmutation
    ##    <int> <chr>  <dbl>  <dbl> <chr>       <int> <chr>             
    ##  1     1 B10    8641. 19609. schp266         1 CCGA              
    ##  2     1 B2      470. 17840. schp15          1 CAAA              
    ##  3     1 B3     3585. 17445. schp19          1 CAAA              
    ##  4     1 B4    31805. 16912. schp20          1 CAAA              
    ##  5     1 B5    21821. 20724. schp76          1 CAAA              
    ##  6     1 C10    8424. 19496. schp276         1 CCAA              
    ##  7     1 C5     7112. 19692. schp271         1 CCGC              
    ##  8     1 D10    4966. 18804. schp286         1 CTGC              
    ##  9     1 D5     8536. 19519. schp281         1 CCAC              
    ## 10     1 E10    7598. 20053. schp296         1 ACGC              
    ## # ... with 86 more rows, and 3 more variables: codonmutation <chr>,
    ## #   stallsites <chr>, gene <chr>
…
  # calculate mean and standard error
  group_by(strain) %>% 
  mutate(mean_yfp = mean(yfp), 
         mean_rfp = mean(rfp), 
         mean_ratio = mean(yfp_rfp_ratio), 
         se_yfp = std.error(yfp), 
         se_rfp = std.error(rfp),
         se_ratio = std.error(yfp_rfp_ratio),
         n = n()) %>% 
  slice(1) %>% 
  ungroup() %>% 
  print()
```

    ## # A tibble: 24 x 18
    ##    plate well        yfp      rfp strain  replicate initiationmutation
    ##    <int> <chr>     <dbl>    <dbl> <chr>       <int> <chr>             
    ##  1     1 H2      -304.       1.10 by4741          1 CAAA              
    ##  2     1 B2        -3.40 17690.   schp15          1 CAAA              
    ##  3     1 B3      3112.   17294.   schp19          1 CAAA              
    ##  4     1 B4     31332.   16761.   schp20          1 CAAA              
    ##  5     1 B10     8167.   19459.   schp266         1 CCGA              
    ##  6     1 C5      6639.   19541.   schp271         1 CCGC              
    ##  7     1 C10     7950.   19345.   schp276         1 CCAA              
    ##  8     1 D5      8063.   19369.   schp281         1 CCAC              
    ##  9     1 D10     4492.   18653.   schp286         1 CTGC              
    ## 10     1 E5      4802.   18882.   schp291         1 AAAA              
    ## # ... with 14 more rows, and 11 more variables: codonmutation <chr>,
    ## #   stallsites <chr>, gene <chr>, mean_yfp <dbl>, mean_rfp <dbl>,
    ## #   yfp_rfp_ratio <dbl>, mean_ratio <dbl>, se_yfp <dbl>, se_rfp <dbl>,
    ## #   se_ratio <dbl>, n <int>
…
