…
# These are the PAR32 plasmid 1 that had a deletion of an AAG
bad_wells <- tibble(strain = c("schp1499", "schp1491"))
```

Read data
=========

``` r
flowdata  <- read_tsv(paste0(fcs_file_folder, '/data.tsv.xz')) %>% 
  print()
```

    ## # A tibble: 840,000 x 7
    ##    plate well   FSC.A  SSC.A FITC.A PE.Texas.Red.A  Time
    ##    <int> <chr>  <int>  <int>  <int>          <int> <dbl>
    ##  1     1 B2    114333  89534    140            126  3.03
    ##  2     1 B2     40328  18838     45             14  3.04
    ##  3     1 B2     77999  56223     59             53  3.04
    ##  4     1 B2    128758  55886     79             29  3.04
    ##  5     1 B2    113005  47530     43             17  3.05
    ##  6     1 B2     54542    -47    -67              1  3.06
    ##  7     1 B2     40364  20969     -5             45  3.12
    ##  8     1 B2     25567  15818     15             39  3.14
    ##  9     1 B2     73250  33755     83              0  3.16
    ## 10     1 B2     22494  12836     30              1  3.17
    ## # ... with 839,990 more rows

Read annotations
================

``` r
annotations  <- read_tsv(paste0(fcs_file_folder, '/annotations.tsv')) %>% 
  print()
```

    ## # A tibble: 84 x 7
    ##    plate well  strain   gene    stall kogene replicate
    ##    <int> <chr> <chr>    <chr>   <chr> <chr>      <int>
    ##  1     1 B2    by4741   <NA>    <NA>  <NA>           1
    ##  2     1 B3    schp15   <NA>    <NA>  <NA>           1
    ##  3     1 B4    schp19   maxhis3 6xcgg <NA>           1
    ##  4     1 B5    schp20   maxhis3 6xaga <NA>           1
    ##  5     1 B6    schp498  <NA>    <NA>  <NA>           1
    ##  6     1 B7    schp1490 PGK1    MAP2  <NA>           1
    ##  7     1 B8    schp1491 PGK1    PAR32 <NA>           1
    ##  8     1 B9    schp1492 PGK1    PAR32 <NA>           1
    ##  9     1 B10   schp1493 PGK1    HMO1  <NA>           1
    ## 10     1 B11   schp1494 PGK1    RMP1  <NA>           1
    ## # ... with 74 more rows
…
``` r
by_file <- flowdata  %>% 
  # group by each plate and well
  group_by(plate, well) %>% 
  select(FITC.A, PE.Texas.Red.A) %>% 
  # calculate mean
  summarise_all(mean) %>% 
  # rename
  rename('yfp' = FITC.A, 'rfp' = PE.Texas.Red.A) %>% 
  # join annotations
  left_join(annotations, by = c('plate', 'well')) %>% 
  print()
```

    ## # A tibble: 84 x 9
    ## # Groups:   plate [?]
    ##    plate well     yfp    rfp strain   gene    stall kogene replicate
    ##    <int> <chr>  <dbl>  <dbl> <chr>    <chr>   <chr> <chr>      <int>
    ##  1     1 B10   5036.  8073.  schp1493 PGK1    HMO1  <NA>           1
    ##  2     1 B11   2833.  7597.  schp1494 PGK1    RMP1  <NA>           1
    ##  3     1 B2      14.4   17.8 by4741   <NA>    <NA>  <NA>           1
    ##  4     1 B3      46.0 7300.  schp15   <NA>    <NA>  <NA>           1
    ##  5     1 B4     224.  6434.  schp19   maxhis3 6xcgg <NA>           1
    ##  6     1 B5    2983.  7312.  schp20   maxhis3 6xaga <NA>           1
    ##  7     1 B6     110.  8622.  schp498  <NA>    <NA>  <NA>           1
    ##  8     1 B7    4924.  7295.  schp1490 PGK1    MAP2  <NA>           1
    ##  9     1 B8    4813.  7562.  schp1491 PGK1    PAR32 <NA>           1
    ## 10     1 B9    3513.  7957.  schp1492 PGK1    PAR32 <NA>           1
    ## # ... with 74 more rows
…
We will normalize the YFP RFP ratio for each strain by the mean no stall value for the WT or ASC1 strain. Then we can compare the ASC1 and WT strain for significance for each stall.

``` r
plot_data <- avg_data %>% 
  # mutate(plasmid_replicate = as.factor(plasmid_replicate)) %>% 
  filter(gene == "PGK1") %>% 
  group_by(kogene, replicate) %>% 
  mutate(norm_yfp_rfp_ratio = yfp_rfp_ratio / yfp_rfp_ratio[is.na(stall)]) %>% 
  ungroup() %>% 
  select(kogene, stall, replicate, norm_yfp_rfp_ratio) %>% 
  print()
```

    ## # A tibble: 56 x 4
    ##    kogene stall replicate norm_yfp_rfp_ratio
    ##    <chr>  <chr>     <int>              <dbl>
    ##  1 <NA>   HMO1          1              0.914
    ##  2 <NA>   RMP1          1              0.543
    ##  3 <NA>   MAP2          1              0.989
    ##  4 <NA>   PAR32         1              0.644
    ##  5 ASC1   TMA23         1              0.996
    ##  6 ASC1   JJJ1          1              1.03 
    ##  7 <NA>   TMA23         1              0.964
    ##  8 <NA>   JJJ1          1              0.904
    ##  9 <NA>   <NA>          1              1    
    ## 10 ASC1   MAP2          1              0.999
    ## # ... with 46 more rows
…
