…
Read data
=========

``` r
flowdata  <- read_tsv(paste0(fcs_file_folder, '/data.tsv.xz')) %>% 
  # get only values greater than 0
  filter(FITC.A > 0 & PE.Texas.Red.A > 0) %>% 
  print()
```

    ## # A tibble: 2,174,211 x 7
    ##    plate well   FSC.A  SSC.A FITC.A PE.Texas.Red.A   Time
    ##    <int> <chr>  <int>  <int>  <int>          <int>  <int>
    ##  1     1 B2    113821 133920   2791           1062   5336
    ##  2     1 B2     23621   6990     78             44 262144
    ##  3     1 B3     21284   9063    170          13794 262144
    ##  4     1 B3     26157   7297     70          11360 262144
    ##  5     1 B3     19049   6756     93           9516 262144
    ##  6     1 B3     30939   9588    181          14556 262144
    ##  7     1 B3     31802   8719    183          13015 262144
    ##  8     1 B3     21915   5956    149           8505 262144
    ##  9     1 B3     25700   7164    134          13682 262144
    ## 10     1 B3     22643   9429    160          14758 262144
    ## # ... with 2,174,201 more rows

Read annotations
================

``` r
annotations  <- read_tsv(paste0(fcs_file_folder, '/annotations.tsv')) %>% 
  print()
```

    ## # A tibble: 232 x 9
    ##    plate well  strain  replicate initiationmutation codonmutation gene   
    ##    <int> <chr> <chr>       <int> <chr>              <chr>         <chr>  
    ##  1     1 B2    by4741          1 CAAA               <NA>          <NA>   
    ##  2     1 B3    schp15          1 CAAA               <NA>          <NA>   
    ##  3     1 B4    schp19          1 CAAA               cgg           maxhis3
    ##  4     1 B5    schp20          1 CAAA               aga           maxhis3
    ##  5     1 B8    schp771         1 CAAA               cca           pgk1   
    ##  6     1 B9    schp772         1 CCAC               cca           pgk1   
    ##  7     1 B10   schp773         1 CTGC               cca           pgk1   
    ##  8     1 B11   schp774         1 CAAA               ccg           pgk1   
    ##  9     1 C2    schp775         1 CCAC               ccg           pgk1   
    ## 10     1 C3    schp776         1 CTGC               ccg           pgk1   
    ## # ... with 222 more rows, and 2 more variables: knockout <chr>,
    ## #   complement <chr>
…
``` r
by_file <- flowdata  %>% 
  # group by each plate and well
  group_by(plate, well) %>% 
  select(FITC.A, PE.Texas.Red.A) %>% 
  # calculate mean
  summarise_all(mean) %>% 
  # rename
  rename('yfp' = FITC.A, 'rfp' = PE.Texas.Red.A) %>% 
  # join annotations
  left_join(annotations, by = c('plate', 'well')) %>% 
  print()
```

    ## # A tibble: 232 x 11
    ## # Groups:   plate [?]
    ##    plate well    yfp    rfp strain   replicate initiationmutation
    ##    <int> <chr> <dbl>  <dbl> <chr>        <int> <chr>             
    ##  1     1 B10   1807. 28779. schp773          1 CTGC              
    ##  2     1 B11   5309.  9006. schp774          1 CAAA              
    ##  3     1 B2    1434.   553. by4741           1 CAAA              
    ##  4     1 B3     115. 23894. schp15           1 CAAA              
    ##  5     1 B4     628. 21794. schp19           1 CAAA              
    ##  6     1 B5    6473. 22040. schp20           1 CAAA              
    ##  7     1 B8    4017. 25736. schp771          1 CAAA              
    ##  8     1 B9    2867. 26282. schp772          1 CCAC              
    ##  9     1 C10   3862.  6242. schp1137         1 CAAA              
    ## 10     1 C11   2556. 11583. schp1138         1 CCAC              
    ## # ... with 222 more rows, and 4 more variables: codonmutation <chr>,
    ## #   gene <chr>, knockout <chr>, complement <chr>
…
