…
Read data
=========

``` r
flowdata  <- read_tsv(paste0(fcs_file_folder, '/data.tsv.xz')) %>% 
  print()
```

    ## # A tibble: 1,360,000 x 7
    ##    plate well    FSC.A   SSC.A FITC.A PE.Texas.Red.A  Time
    ##    <int> <chr>   <int>   <int>  <int>          <int> <dbl>
    ##  1     1 B2     130834      -2     55            -10 0.168
    ##  2     1 B2      87315     -81   -103              0 0.216
    ##  3     1 B2      73016      22     73             23 0.222
    ##  4     1 B2      48764     -49    -47             41 1.19 
    ##  5     1 B2      76180      43    117             77 4.13 
    ##  6     1 B2      64323    1223    740            409 5.91 
    ##  7     1 B2     262144  262144    104           -100 5.94 
    ##  8     1 B2    -175928 -311715   1301            -60 5.96 
    ##  9     1 B2      31074   25985   -536           -398 6.03 
    ## 10     1 B2      19801   15723   -610           -395 6.06 
    ## # ... with 1,359,990 more rows

Read annotations
================

``` r
annotations  <- read_tsv(paste0(fcs_file_folder, '/annotations.tsv')) %>% 
  print()
```

    ## # A tibble: 136 x 8
    ##    plate well  strain replicate initiationmutat… codonmutation gene 
    ##    <int> <chr> <chr>      <int> <chr>            <chr>         <chr>
    ##  1     1 B2    by4741         1 CAAA             <NA>          <NA> 
    ##  2     1 B3    schp15         1 CAAA             <NA>          <NA> 
    ##  3     1 B4    schp19         1 CAAA             cgg           maxh…
    ##  4     1 B5    schp20         1 CAAA             aga           maxh…
    ##  5     1 B11   schp7…         1 CAAA             cca           pgk1 
    ##  6     1 C2    schp7…         1 CCAC             cca           pgk1 
    ##  7     1 C3    schp7…         1 CTGC             cca           pgk1 
    ##  8     1 C4    schp7…         1 CAAA             ccg           pgk1 
    ##  9     1 C5    schp7…         1 CCAC             ccg           pgk1 
    ## 10     1 C6    schp7…         1 CTGC             ccg           pgk1 
    ## # ... with 126 more rows, and 1 more variable: knockout <chr>
…
``` r
by_file <- flowdata  %>% 
  # group by each plate and well
  group_by(plate, well) %>% 
  select(FITC.A, PE.Texas.Red.A) %>% 
  # calculate mean
  summarise_all(mean) %>% 
  # rename
  rename('yfp' = FITC.A, 'rfp' = PE.Texas.Red.A) %>% 
  # join annotations
  left_join(annotations, by = c('plate', 'well')) %>% 
  print()
```

    ## # A tibble: 136 x 10
    ## # Groups:   plate [?]
    ##    plate well     yfp    rfp strain replicate initiationmutat…
    ##    <int> <chr>  <dbl>  <dbl> <chr>      <int> <chr>           
    ##  1     1 B11   1.42e4 2.44e4 schp7…         1 CAAA            
    ##  2     1 B2    3.31e1 1.16e1 by4741         1 CAAA            
    ##  3     1 B3    3.33e2 2.52e4 schp15         1 CAAA            
    ##  4     1 B4    3.37e3 2.21e4 schp19         1 CAAA            
    ##  5     1 B5    2.46e4 2.06e4 schp20         1 CAAA            
    ##  6     1 C10   2.18e3 2.51e4 schp7…         1 CAAA            
    ##  7     1 C11   6.10e3 2.60e4 schp7…         1 CCAC            
    ##  8     1 C2    1.06e4 2.62e4 schp7…         1 CCAC            
    ##  9     1 C3    4.45e3 2.69e4 schp7…         1 CTGC            
    ## 10     1 C4    2.76e3 2.54e4 schp7…         1 CAAA            
    ## # ... with 126 more rows, and 3 more variables: codonmutation <chr>,
    ## #   gene <chr>, knockout <chr>
…
  # calculate mean and standard error
  group_by(strain) %>% 
  mutate(mean_yfp = mean(yfp), 
         mean_rfp = mean(rfp), 
         mean_ratio = mean(yfp_rfp_ratio), 
         se_yfp = std.error(yfp), 
         se_rfp = std.error(rfp),
         se_ratio = std.error(yfp_rfp_ratio),
         n = n()) %>% 
  slice(1) %>% 
  ungroup() %>% 
  print()
```

    ## # A tibble: 34 x 18
    ##    plate well      yfp     rfp strain replicate initiationmutat…
    ##    <int> <chr>   <dbl>   <dbl> <chr>      <int> <chr>           
    ##  1     1 B2    -2.78e2 -3.17e1 by4741         1 CAAA            
    ##  2     1 B3     2.20e1  2.51e4 schp15         1 CAAA            
    ##  3     1 B4     3.06e3  2.20e4 schp19         1 CAAA            
    ##  4     1 B5     2.43e4  2.06e4 schp20         1 CAAA            
    ##  5     1 B11    1.39e4  2.44e4 schp7…         1 CAAA            
    ##  6     1 C2     1.03e4  2.62e4 schp7…         1 CCAC            
    ##  7     1 C3     4.14e3  2.68e4 schp7…         1 CTGC            
    ##  8     1 C4     2.44e3  2.53e4 schp7…         1 CAAA            
    ##  9     1 C5     6.29e3  2.60e4 schp7…         1 CCAC            
    ## 10     1 C6     3.85e3  2.54e4 schp7…         1 CTGC            
    ## # ... with 24 more rows, and 11 more variables: codonmutation <chr>,
    ## #   gene <chr>, knockout <chr>, mean_yfp <dbl>, mean_rfp <dbl>,
    ## #   yfp_rfp_ratio <dbl>, mean_ratio <dbl>, se_yfp <dbl>, se_rfp <dbl>,
    ## #   se_ratio <dbl>, n <int>
…
