…
# this folder contains the data and annotations
fcs_file_folder <- "../../data/flow/no_insert/"
```

Read data
=========

``` r
flowdata  <- read_tsv(paste0(fcs_file_folder, '/data.tsv.xz')) %>% 
  print()
```

    ## # A tibble: 780,000 x 7
    ##    plate well  FSC.A SSC.A FITC.A PE.Texas.Red.A  Time
    ##    <int> <chr> <int> <int>  <int>          <int> <dbl>
    ##  1     1 B2    65154 32131    145            -30  3.06
    ##  2     1 B2    41616 12409     31             71  3.08
    ##  3     1 B2    18799  5290    -14            -75  3.10
    ##  4     1 B2    27994 10913     50             72  3.11
    ##  5     1 B2    20615  8426    -20            -93  3.13
    ##  6     1 B2    32580  9919     24             36  3.14
    ##  7     1 B2    52503 18276     14             16  3.26
    ##  8     1 B2    19405  7656    -26            -98  3.32
    ##  9     1 B2    19741 11272     37             -5  3.40
    ## 10     1 B2    46243 21834     -5             47  3.41
    ## # ... with 779,990 more rows

Read annotations
================

``` r
annotations  <- read_tsv(paste0(fcs_file_folder, '/annotations.tsv')) %>% 
  print()
```

    ## # A tibble: 78 x 6
    ##    plate well  strain  replicate initiationmutation gene   
    ##    <int> <chr> <chr>       <int> <chr>              <chr>  
    ##  1     1 B2    by4741          1 CAAA               <NA>   
    ##  2     1 B3    schp15          1 CAAA               <NA>   
    ##  3     1 B4    schp19          1 CAAA               maxhis3
    ##  4     1 B5    schp20          1 CAAA               maxhis3
    ##  5     1 D4    schp971         1 CAAA               pgk1   
    ##  6     1 D5    schp972         1 CCGC               pgk1   
    ##  7     1 D6    schp973         1 CCAA               pgk1   
    ##  8     1 D7    schp974         1 CCAC               pgk1   
    ##  9     1 D8    schp975         1 CCGA               pgk1   
    ## 10     1 D9    schp976         1 CTGC               pgk1   
    ## # ... with 68 more rows
…
``` r
by_file <- flowdata  %>% 
  # group by each plate and well
  group_by(plate, well) %>% 
  select(FITC.A, PE.Texas.Red.A) %>% 
  # calculate mean
  summarise_all(mean) %>% 
  # rename
  rename('yfp' = FITC.A, 'rfp' = PE.Texas.Red.A) %>% 
  # join annotations
  left_join(annotations, by = c('plate', 'well')) %>% 
  print()
```

    ## # A tibble: 78 x 8
    ## # Groups:   plate [?]
    ##    plate well      yfp     rfp strain  replicate initiationmutation gene   
    ##    <int> <chr>   <dbl>   <dbl> <chr>       <int> <chr>              <chr>  
    ##  1     1 B2       61.9    34.5 by4741          1 CAAA               <NA>   
    ##  2     1 B3      255.  17537.  schp15          1 CAAA               <NA>   
    ##  3     1 B4     2887.  17279.  schp19          1 CAAA               maxhis3
    ##  4     1 B5    22305.  16433.  schp20          1 CAAA               maxhis3
    ##  5     1 D10   43311.  19291.  schp977         1 AAAA               pgk1   
    ##  6     1 D11   16555.  19609.  schp978         1 ACGC               pgk1   
    ##  7     1 D4    42875.  19134.  schp971         1 CAAA               pgk1   
    ##  8     1 D5    15041.  21224.  schp972         1 CCGC               pgk1   
    ##  9     1 D6    27767.  16539.  schp973         1 CCAA               pgk1   
    ## 10     1 D7    21303.  17632.  schp974         1 CCAC               pgk1   
    ## # ... with 68 more rows
…
