…
# this folder contains the data and annotations
data_folder <- "../../data/western/"
```

Read data and annotations
=========================

``` r
data  <- read_tsv(paste0(data_folder, '/quantification.tsv')) %>% 
  print()
```

    ## # A tibble: 112 x 10
    ##     lane  area  mean   min   max codon initiation  blot strain antibody
    ##    <int> <int> <dbl> <int> <int> <chr> <chr>      <int> <chr>  <chr>   
    ##  1     1  2640  179.   123   255 aga   ctgc           1 wt     h3      
    ##  2     2  2640  175.   123   255 aga   ccac           1 wt     h3      
    ##  3     3  2640  177.   124   255 aga   caaa           1 wt     h3      
    ##  4     4  2640  176.   123   255 aag   ctgc           1 wt     h3      
    ##  5     5  2640  174.   124   255 aag   ccac           1 wt     h3      
    ##  6     6  2640  171.   123   255 aag   caaa           1 wt     h3      
    ##  7     7  2640  124.   122   129 <NA>  <NA>           1 wt     h3      
    ##  8     1  4000  134.   100   244 aga   ctgc           1 wt     flag    
    ##  9     2  4000  173.    99   255 aga   ccac           1 wt     flag    
    ## 10     3  4000  208.    99   255 aga   caaa           1 wt     flag    
    ## # ... with 102 more rows
…
