…
Read protein count data
=======================

``` r
psr_data <- read_tsv("tables/psr_stats.tsv") %>% 
  print()
```

    ## # A tibble: 90 x 6
    ##    sim_id mean_p_per_m sd_p_per_m total_p total_time     psr
    ##     <int>        <int>      <int>   <int>      <int>   <dbl>
    ##  1      0            3          2    3315     999930 0.00332
    ##  2      1            6          4    6650     999561 0.00665
    ##  3     10            6          4    6876     999732 0.00688
    ##  4     11           13          7   13329     999929 0.0133 
    ##  5     12           26         13   27553     999995 0.0276 
    ##  6     13           49         25   47056     997522 0.0472 
    ##  7     14           40         29   39676     999997 0.0397 
    ##  8     15           19         11   19931     998784 0.0200 
    ##  9     16           18         12   17731     999461 0.0177 
    ## 10     17           20         12   20974     998908 0.0210 
    ## # ... with 80 more rows
…
  mutate(data = map(file, read_tsv)) %>% 
  select(-file, -sno) %>% 
  unnest() %>% 
  type_convert() %>% 
  # retain only parameters that are varied, the others are for checking
  group_by(parameter) %>% 
  mutate(vary = if_else(length(unique(value)) > 1, T, F)) %>% 
  ungroup() %>% 
  filter(vary == T) %>% 
  select(-vary) %>% 
  spread(parameter, value) %>% 
  print()
```

    ## # A tibble: 90 x 12
    ##    sim_id k_elong_stall_1 k_elong_stall_2 k_elong_stall_3 k_elong_stall_4
    ##     <int>           <dbl>           <dbl>           <dbl>           <dbl>
    ##  1      0             0.1            NA                NA              NA
    ##  2      1             0.1            NA                NA              NA
    ##  3      2             0.1            NA                NA              NA
    ##  4      3             0.1            NA                NA              NA
    ##  5      4             0.1            NA                NA              NA
    ##  6      5             0.1            NA                NA              NA
    ##  7      6             0.1            NA                NA              NA
    ##  8      7             0.1            NA                NA              NA
    ##  9      8             0.1            NA                NA              NA
    ## 10      9             0.2             0.2              NA              NA
    ## # ... with 80 more rows, and 7 more variables: k_elong_stall_5 <dbl>,
    ## #   k_elong_stall_6 <dbl>, k_elong_stall_7 <dbl>, k_elong_stall_8 <dbl>,
    ## #   k_elong_stall_9 <dbl>, k_init <dbl>, n_stall <dbl>

Combine all data into a single table
====================================

``` r
data <- annotations %>% 
  left_join(psr_data, by = "sim_id") %>% 
  filter(n_stall <= 6) %>%
  mutate(n_stall = as.factor(n_stall)) %>% 
  print()
```

    ## # A tibble: 54 x 17
    ##    sim_id k_elong_stall_1 k_elong_stall_2 k_elong_stall_3 k_elong_stall_4
    ##     <int>           <dbl>           <dbl>           <dbl>           <dbl>
    ##  1      0             0.1            NA                NA              NA
    ##  2      1             0.1            NA                NA              NA
    ##  3      2             0.1            NA                NA              NA
    ##  4      3             0.1            NA                NA              NA
    ##  5      4             0.1            NA                NA              NA
    ##  6      5             0.1            NA                NA              NA
    ##  7      6             0.1            NA                NA              NA
    ##  8      7             0.1            NA                NA              NA
    ##  9      8             0.1            NA                NA              NA
    ## 10      9             0.2             0.2              NA              NA
    ## # ... with 44 more rows, and 12 more variables: k_elong_stall_5 <dbl>,
    ## #   k_elong_stall_6 <dbl>, k_elong_stall_7 <dbl>, k_elong_stall_8 <dbl>,
    ## #   k_elong_stall_9 <dbl>, k_init <dbl>, n_stall <fct>,
    ## #   mean_p_per_m <int>, sd_p_per_m <int>, total_p <int>, total_time <int>,
    ## #   psr <dbl>
…
