…
Read protein count data
=======================

``` r
psr_data <- read_tsv("tables/psr_stats.tsv") %>% 
  print()
```

    ## # A tibble: 270 x 6
    ##    sim_id mean_p_per_m sd_p_per_m total_p total_time     psr
    ##     <int>        <int>      <int>   <int>      <int>   <dbl>
    ##  1      0            3          2    3333     999764 0.00333
    ##  2      1            3          2    3298     999793 0.00330
    ##  3     10            3          2    3409     999929 0.00341
    ##  4    100           26         13   27414     999976 0.0274 
    ##  5    101           25         13   25862     999997 0.0259 
    ##  6    102           23         13   24638     995388 0.0248 
    ##  7    103           12         10   13504     999411 0.0135 
    ##  8    104            3          2    3239     997123 0.00325
    ##  9    105           26         13   27416     999966 0.0274 
    ## 10    106           26         13   26896     999998 0.0269 
    ## # ... with 260 more rows

Read mRNA lifetime data
=======================

``` r
lifetime_data <- read_tsv("tables/mrna_lifetime_stats.tsv") %>% 
  mutate(se_lifetime = sd_lifetime / sqrt(n_mrna)) %>% 
  print()
```

    ## # A tibble: 270 x 5
    ##    sim_id mean_lifetime sd_lifetime n_mrna se_lifetime
    ##     <int>         <int>       <int>  <int>       <dbl>
    ##  1      0          2104         277   1004        8.74
    ##  2      1          2069         347    973       11.1 
    ##  3     10          2105         269   1043        8.33
    ##  4    100          2096         275   1019        8.61
    ##  5    101          1874         568    999       18.0 
    ##  6    102          1738         670   1063       20.5 
    ##  7    103           700         605   1051       18.7 
    ##  8    104           152         128    962        4.13
    ##  9    105          2080         281   1026        8.77
    ## 10    106          2105         294   1001        9.29
    ## # ... with 260 more rows

Read mRNA lifetime data
=======================

``` r
collision_data <- read_tsv("tables/collision_stats.tsv") %>% 
  print()
```

    ## # A tibble: 270 x 6
    ##    sim_id mean_p_per_m sd_p_per_m total_collision total_time collision_freq
    ##     <int>        <int>      <int>           <int>      <int>          <dbl>
    ##  1      0            8          9            1855     999764       0.00186 
    ##  2      1            7          7            1701     999793       0.00170 
    ##  3     10            6          7             474     999203       0.000474
    ##  4    100           35         42           31140     999976       0.0311  
    ##  5    101           37         42           31755     999997       0.0318  
    ##  6    102           35         42           31058     995388       0.0312  
    ##  7    103           29         31           23034     999411       0.0230  
    ##  8    104           13         14            6282     995477       0.00631 
    ##  9    105           37         44           32709     999966       0.0327  
    ## 10    106           35         40           30169     999998       0.0302  
    ## # ... with 260 more rows
…
``` r
sim_params <- read_tsv("sim.params.tsv") %>% 
  rename(sim_id = X1) %>% 
  mutate(k_elong_stall = str_split(k_elong_stall, ",")) %>%
  mutate(k_elong_stall = map(k_elong_stall, as.numeric)) %>%
  mutate(k_elong_stall = map(k_elong_stall, function(x) unique(x))) %>%
  unnest() %>%
  mutate(x_stall = stringr::str_split(x_stall, ',')) %>%
  mutate(k_stall = round(k_elong_stall / as.numeric(n_stall), 2)) %>%
  select(sim_id, cleave_rate, cleave_model, k_stall) %>%
  print()
```

    ## # A tibble: 270 x 4
    ##    sim_id cleave_rate cleave_model k_stall
    ##     <int>       <dbl> <chr>          <dbl>
    ##  1      0      0      simple          0.02
    ##  2      1      0.0001 simple          0.02
    ##  3      2      0.0002 simple          0.02
    ##  4      3      0.001  simple          0.02
    ##  5      4      0.005  simple          0.02
    ##  6      5      0.0001 hit5            0.02
    ##  7      6      0.0002 hit5            0.02
    ##  8      7      0.001  hit5            0.02
    ##  9      8      0.005  hit5            0.02
    ## 10      9      0.01   hit5            0.02
    ## # ... with 260 more rows
…
  select(-file, -sno) %>%
  unnest() %>%
  type_convert() %>%
  # retain only parameters that are varied, the others are for checking
  group_by(parameter) %>%
  mutate(vary = if_else(length(unique(value)) > 1, T, F)) %>%
  ungroup() %>%
  filter(vary == T) %>%
  select(-vary) %>%
  spread(parameter, value) %>%
  left_join(sim_params, by = "sim_id") %>%
  print()
```

    ## # A tibble: 270 x 14
    ##    sim_id k_cleave_5_hit k_cleave_both_h… k_cleave_no_hit k_elong_stall_1
    ##     <int>          <dbl>            <dbl>           <dbl>           <dbl>
    ##  1      0         0                0               0                 0.12
    ##  2      1         0.0001           0               0.0001            0.12
    ##  3      2         0.0002           0               0.0002            0.12
    ##  4      3         0.001            0               0.001             0.12
    ##  5      4         0.005            0               0.005             0.12
    ##  6      5         0.0001           0.0001          0                 0.12
    ##  7      6         0.0002           0.0002          0                 0.12
    ##  8      7         0.001            0.001           0                 0.12
    ##  9      8         0.005            0.005           0                 0.12
    ## 10      9         0.01             0.01            0                 0.12
    ## # ... with 260 more rows, and 9 more variables: k_elong_stall_2 <dbl>,
    ## #   k_elong_stall_3 <dbl>, k_elong_stall_4 <dbl>, k_elong_stall_5 <dbl>,
    ## #   k_elong_stall_6 <dbl>, k_init <dbl>, cleave_rate <dbl>,
    ## #   cleave_model <chr>, k_stall <dbl>

Combine all data into a single table
====================================

``` r
data <- annotations %>% 
  left_join(psr_data, by = "sim_id") %>% 
  left_join(lifetime_data, by = "sim_id") %>% 
  left_join(collision_data, by = "sim_id") %>% 
  print()
```

    ## # A tibble: 270 x 28
    ##    sim_id k_cleave_5_hit k_cleave_both_h… k_cleave_no_hit k_elong_stall_1
    ##     <int>          <dbl>            <dbl>           <dbl>           <dbl>
    ##  1      0         0                0               0                 0.12
    ##  2      1         0.0001           0               0.0001            0.12
    ##  3      2         0.0002           0               0.0002            0.12
    ##  4      3         0.001            0               0.001             0.12
    ##  5      4         0.005            0               0.005             0.12
    ##  6      5         0.0001           0.0001          0                 0.12
    ##  7      6         0.0002           0.0002          0                 0.12
    ##  8      7         0.001            0.001           0                 0.12
    ##  9      8         0.005            0.005           0                 0.12
    ## 10      9         0.01             0.01            0                 0.12
    ## # ... with 260 more rows, and 23 more variables: k_elong_stall_2 <dbl>,
    ## #   k_elong_stall_3 <dbl>, k_elong_stall_4 <dbl>, k_elong_stall_5 <dbl>,
    ## #   k_elong_stall_6 <dbl>, k_init <dbl>, cleave_rate <dbl>,
    ## #   cleave_model <chr>, k_stall <dbl>, mean_p_per_m.x <int>,
    ## #   sd_p_per_m.x <int>, total_p <int>, total_time.x <int>, psr <dbl>,
    ## #   mean_lifetime <int>, sd_lifetime <int>, n_mrna <int>,
    ## #   se_lifetime <dbl>, mean_p_per_m.y <int>, sd_p_per_m.y <int>,
    ## #   total_collision <int>, total_time.y <int>, collision_freq <dbl>
…
