…
  # get data from each file
  mutate(data = map(filename, . %>% 
                      flowCore::read.FCS(transformation = F, alter.names = T) %>% 
                      flowCore::exprs() %>% 
                      as_tibble())) %>% 
  # extract file name without .fcs extension and parent folder name
  mutate(file = str_extract(filename, '[^/]+(?=.fcs$)')) %>% 
  # get rid of unwanted columns
  select(-sno, -filename) %>% 
  # expand data out
  unnest() %>% 
  print()
```

    ## # A tibble: 1,560,000 x 6
    ##    file                       FSC.A    SSC.A FITC.A PE.Texas.Red.A  Time
    ##    <chr>                      <dbl>    <dbl>  <dbl>          <dbl> <dbl>
    ##  1 Specimen_001_B10_B10_009   8889.     3.67  -70.1           46.3  3.14
    ##  2 Specimen_001_B10_B10_009 108084.    85.2   109.           -44.8  3.23
    ##  3 Specimen_001_B10_B10_009  37340. 33517.    286.         16562.   3.28
    ##  4 Specimen_001_B10_B10_009  25670. 25193.    306.         11521.   3.39
    ##  5 Specimen_001_B10_B10_009  27334.    21.1   -43.4           11.4  3.40
    ##  6 Specimen_001_B10_B10_009  28838. 29725.    206.          4751.   3.50
    ##  7 Specimen_001_B10_B10_009  42177.    39.1    28.4          -27.4  3.54
    ##  8 Specimen_001_B10_B10_009  75328. 41145.    557.         27291.   3.54
    ##  9 Specimen_001_B10_B10_009  68649.    95.6    32.5           91.6  3.56
    ## 10 Specimen_001_B10_B10_009  45710. 47615.    533.         22502.   3.59
    ## # ... with 1,559,990 more rows
…
                        read_tsv(col_types = list('plate' = col_integer())) %>% 
  # the default initiation mutation is CAAA
  mutate(initiationmutation = if_else(is.na(initiationmutation), "CAAA", 
                                      initiationmutation)) %>% 
  mutate(initiationmutation = toupper(initiationmutation)) %>% 
  # arrange initiationmutation in this order 
  mutate(initiationmutation = fct_reorder(
      initiationmutation, 
      initiationmutation_order[initiationmutation])) %>% 
  # remove leading 0 in strain number
  mutate(strain = str_replace(strain, "schp0", "schp")) %>%
  print()
```

    ## # A tibble: 156 x 18
    ##    plate file           strain  codonmutation numberofcodonrep… stallsites
    ##    <int> <chr>          <chr>   <chr>         <chr>             <chr>     
    ##  1     1 Specimen_001_… by4741  na            na                na        
    ##  2     1 Specimen_001_… schp15  na            na                na        
    ##  3     1 Specimen_001_… schp19  cgg           6                 1         
    ##  4     1 Specimen_001_… schp20  aga           6                 na        
    ##  5     1 Specimen_001_… scas011 na            na                na        
    ##  6     1 Specimen_001_… scas012 na            na                na        
    ##  7     1 Specimen_001_… scas017 na            na                na        
    ##  8     1 Specimen_001_… schp498 na            na                na        
    ##  9     1 Specimen_001_… schp520 na            na                na        
    ## 10     1 Specimen_001_… schp747 cca           8                 na        
    ## # ... with 146 more rows, and 12 more variables: initiationmutation <fct>,
    ## #   genes <chr>, gpdmkate2 <chr>, citrine <chr>, replicate <int>,
    ## #   knockoutgenes <chr>, taggene <chr>, tag <chr>, genewithtag <chr>,
    ## #   parent <chr>, note <chr>, initimut <chr>
…
  # group by  each file (well)
  group_by(file) %>% 
  select(FITC.A, PE.Texas.Red.A) %>% 
  # calculate mean
  summarise_all(mean) %>% 
  # rename
  rename('yfp' = FITC.A, 'rfp' = PE.Texas.Red.A) %>% 
  # ratios
  mutate('yfp_rfp_ratio' = yfp / rfp * 10) %>% 
  # join annotations
  left_join(annotations, by = 'file') %>% 
  print()
```

    ## # A tibble: 156 x 21
    ##    file                yfp    rfp yfp_rfp_ratio plate strain codonmutation
    ##    <chr>             <dbl>  <dbl>         <dbl> <int> <chr>  <chr>        
    ##  1 Specimen_001_B…   347.  2.45e4         0.142     1 schp5… na           
    ##  2 Specimen_001_B… 14237.  2.44e4         5.83      1 schp7… cca          
    ##  3 Specimen_001_B…    33.3 1.17e1        28.4       1 by4741 na           
    ##  4 Specimen_001_B…   334.  2.52e4         0.133     1 schp15 na           
    ##  5 Specimen_001_B…  3367.  2.21e4         1.53      1 schp19 cgg          
    ##  6 Specimen_001_B… 24584.  2.06e4        11.9       1 schp20 aga          
    ##  7 Specimen_001_B…  1640.  5.01e4         0.328     1 scas0… na           
    ##  8 Specimen_001_B…   338.  2.46e4         0.137    NA <NA>   <NA>         
    ##  9 Specimen_001_B…   350.  2.16e4         0.162     1 scas0… na           
    ## 10 Specimen_001_B…   418.  2.60e4         0.161     1 schp4… na           
    ## # ... with 146 more rows, and 14 more variables:
    ## #   numberofcodonrepeats <chr>, stallsites <chr>,
    ## #   initiationmutation <fct>, genes <chr>, gpdmkate2 <chr>, citrine <chr>,
    ## #   replicate <int>, knockoutgenes <chr>, taggene <chr>, tag <chr>,
    ## #   genewithtag <chr>, parent <chr>, note <chr>, initimut <chr>
Calculate mean and standard deviation
-------------------------------------

``` r
avg_data  <- by_file %>% 
  # strain is used to get replicates
  group_by(strain) %>% 
  # calculate mean and std.err
  mutate(mean_yfp = mean(yfp), 
         mean_rfp = mean(rfp)) %>% 
  ungroup() %>% 
  print()
```

    ## # A tibble: 156 x 23
    ##    file                yfp    rfp yfp_rfp_ratio plate strain codonmutation
    ##    <chr>             <dbl>  <dbl>         <dbl> <int> <chr>  <chr>        
    ##  1 Specimen_001_B…   347.  2.45e4         0.142     1 schp5… na           
    ##  2 Specimen_001_B… 14237.  2.44e4         5.83      1 schp7… cca          
    ##  3 Specimen_001_B…    33.3 1.17e1        28.4       1 by4741 na           
    ##  4 Specimen_001_B…   334.  2.52e4         0.133     1 schp15 na           
    ##  5 Specimen_001_B…  3367.  2.21e4         1.53      1 schp19 cgg          
    ##  6 Specimen_001_B… 24584.  2.06e4        11.9       1 schp20 aga          
    ##  7 Specimen_001_B…  1640.  5.01e4         0.328     1 scas0… na           
    ##  8 Specimen_001_B…   338.  2.46e4         0.137    NA <NA>   <NA>         
    ##  9 Specimen_001_B…   350.  2.16e4         0.162     1 scas0… na           
    ## 10 Specimen_001_B…   418.  2.60e4         0.161     1 schp4… na           
    ## # ... with 146 more rows, and 16 more variables:
    ## #   numberofcodonrepeats <chr>, stallsites <chr>,
    ## #   initiationmutation <fct>, genes <chr>, gpdmkate2 <chr>, citrine <chr>,
    ## #   replicate <int>, knockoutgenes <chr>, taggene <chr>, tag <chr>,
    ## #   genewithtag <chr>, parent <chr>, note <chr>, initimut <chr>,
    ## #   mean_yfp <dbl>, mean_rfp <dbl>
…
