…
  # get data from each file
  mutate(data = map(filename, . %>% 
                      flowCore::read.FCS(transformation = F, alter.names = T) %>% 
                      flowCore::exprs() %>% 
                      as_tibble())) %>% 
  # extract file name without .fcs extension and parent folder name
  mutate(file = str_extract(filename, '[^/]+(?=.fcs$)')) %>% 
  # get rid of unwanted columns
  select(-sno, -filename) %>% 
  # expand data out
  unnest() %>% 
  print()
```

    ## # A tibble: 1,920,000 x 6
    ##    file                      FSC.A  SSC.A FITC.A PE.Texas.Red.A  Time
    ##    <chr>                     <dbl>  <dbl>  <dbl>          <dbl> <dbl>
    ##  1 Specimen_001_B10_B10_009 49345. 53625. 10432.         16650.  3.01
    ##  2 Specimen_001_B10_B10_009 38518. 24503.  6054.         10228.  3.02
    ##  3 Specimen_001_B10_B10_009 90689. 82742. 15706.         35931.  3.03
    ##  4 Specimen_001_B10_B10_009 37548. 26168.  5287.         11544.  3.07
    ##  5 Specimen_001_B10_B10_009 39889. 27324.  6971.         13016.  3.08
    ##  6 Specimen_001_B10_B10_009 34592. 35675.  7923.         18660.  3.09
    ##  7 Specimen_001_B10_B10_009 81660. 92508. 16746.         33584.  3.09
    ##  8 Specimen_001_B10_B10_009 69554. 46281. 12438.         22019.  3.09
    ##  9 Specimen_001_B10_B10_009 31835. 38506.  4795.         15942.  3.10
    ## 10 Specimen_001_B10_B10_009 47060. 40122.  9663.         24745.  3.12
    ## # ... with 1,919,990 more rows
…
``` r
annotations <- '../data/flow/initiation_pgk1_8xccg/sampleannotations.tsv' %>% 
                        read_tsv(col_types = list('plate' = col_integer())) %>% 
  # the default initiation mutation is CAAA
  mutate(initiationmutation = if_else(is.na(initiationmutation), "CAAA", 
                                      initiationmutation)) %>% 
  mutate(initiationmutation = toupper(initiationmutation)) %>% 
  # arrange initiationmutation in this order 
  mutate(initiationmutation = fct_reorder(
      initiationmutation, 
      initiationmutation_order[initiationmutation])) %>% 
  print()
```

    ## # A tibble: 192 x 16
    ##    plate file  strain codonmutation numberofcodonre… stallsites
    ##    <int> <chr> <chr>  <chr>         <chr>            <chr>     
    ##  1     1 Spec… by4741 na            na               na        
    ##  2     1 Spec… schp15 na            na               na        
    ##  3     1 Spec… schp19 cgg           6                1         
    ##  4     1 Spec… schp20 aga           6                na        
    ##  5     1 Spec… schp76 aga           5                na        
    ##  6     1 Spec… schp91 cgg           5                5         
    ##  7     1 Spec… schp6… cca           8                na        
    ##  8     1 Spec… schp6… cca           8                na        
    ##  9     1 Spec… schp6… cca           8                na        
    ## 10     1 Spec… schp6… cca           8                na        
    ## # ... with 182 more rows, and 10 more variables: initiationmutation <fct>,
    ## #   genes <chr>, gpdmkate2 <chr>, citrine <chr>, replicate <int>,
    ## #   knockoutgenes <chr>, taggene <chr>, tag <chr>, genewithtag <chr>,
    ## #   note <chr>
…
  # group by  each file (well)
  group_by(file) %>% 
  select(FITC.A, PE.Texas.Red.A) %>% 
  # calculate mean
  summarise_all(mean) %>% 
  # rename
  rename('yfp' = FITC.A, 'rfp' = PE.Texas.Red.A) %>% 
  # ratios
  mutate('yfp_rfp_ratio' = yfp / rfp * 10) %>% 
  # join annotations
  left_join(annotations, by = 'file') %>% 
  print()
```

    ## # A tibble: 192 x 19
    ##    file     yfp    rfp yfp_rfp_ratio plate strain codonmutation
    ##    <chr>  <dbl>  <dbl>         <dbl> <int> <chr>  <chr>        
    ##  1 Spec… 1.04e4 2.25e4         4.63      1 schp6… cca          
    ##  2 Spec… 8.42e3 2.34e4         3.61      1 schp6… cca          
    ##  3 Spec… 5.71e1 2.26e1        25.3       1 by4741 na           
    ##  4 Spec… 2.19e2 2.16e4         0.101     1 schp15 na           
    ##  5 Spec… 2.96e3 2.14e4         1.38      1 schp19 cgg          
    ##  6 Spec… 2.26e4 1.98e4        11.4       1 schp20 aga          
    ##  7 Spec… 1.33e4 2.17e4         6.10      1 schp76 aga          
    ##  8 Spec… 4.86e3 2.37e4         2.05     NA <NA>   <NA>         
    ##  9 Spec… 1.24e4 2.16e4         5.75      1 schp6… cca          
    ## 10 Spec… 6.08e3 2.35e4         2.59      1 schp6… cca          
    ## # ... with 182 more rows, and 12 more variables:
    ## #   numberofcodonrepeats <chr>, stallsites <chr>,
    ## #   initiationmutation <fct>, genes <chr>, gpdmkate2 <chr>, citrine <chr>,
    ## #   replicate <int>, knockoutgenes <chr>, taggene <chr>, tag <chr>,
    ## #   genewithtag <chr>, note <chr>
Calculate mean and standard deviation
-------------------------------------

``` r
avg_data  <- by_file %>% 
  # strain is used to get replicates
  group_by(strain) %>% 
  # calculate mean and std.err
  mutate(mean_yfp = mean(yfp), 
         mean_rfp = mean(rfp)) %>% 
  ungroup() %>% 
  print()
```

    ## # A tibble: 192 x 21
    ##    file     yfp    rfp yfp_rfp_ratio plate strain codonmutation
    ##    <chr>  <dbl>  <dbl>         <dbl> <int> <chr>  <chr>        
    ##  1 Spec… 1.04e4 2.25e4         4.63      1 schp6… cca          
    ##  2 Spec… 8.42e3 2.34e4         3.61      1 schp6… cca          
    ##  3 Spec… 5.71e1 2.26e1        25.3       1 by4741 na           
    ##  4 Spec… 2.19e2 2.16e4         0.101     1 schp15 na           
    ##  5 Spec… 2.96e3 2.14e4         1.38      1 schp19 cgg          
    ##  6 Spec… 2.26e4 1.98e4        11.4       1 schp20 aga          
    ##  7 Spec… 1.33e4 2.17e4         6.10      1 schp76 aga          
    ##  8 Spec… 4.86e3 2.37e4         2.05     NA <NA>   <NA>         
    ##  9 Spec… 1.24e4 2.16e4         5.75      1 schp6… cca          
    ## 10 Spec… 6.08e3 2.35e4         2.59      1 schp6… cca          
    ## # ... with 182 more rows, and 14 more variables:
    ## #   numberofcodonrepeats <chr>, stallsites <chr>,
    ## #   initiationmutation <fct>, genes <chr>, gpdmkate2 <chr>, citrine <chr>,
    ## #   replicate <int>, knockoutgenes <chr>, taggene <chr>, tag <chr>,
    ## #   genewithtag <chr>, note <chr>, mean_yfp <dbl>, mean_rfp <dbl>
…
