…
  # get data from each file
  mutate(data = map(filename, . %>% 
                      flowCore::read.FCS(transformation = F, alter.names = T) %>% 
                      flowCore::exprs() %>% 
                      as_tibble())) %>% 
  # extract file name without .fcs extension and parent folder name
  mutate(file = str_extract(filename, '[^/]+(?=.fcs$)')) %>% 
  # get rid of unwanted columns
  select(-sno, -filename) %>% 
  # expand data out
  unnest() %>% 
  print()
```

    ## # A tibble: 2,720,000 x 6
    ##    file                       FSC.A   SSC.A FITC.A PE.Texas.Red.A  Time
    ##    <chr>                      <dbl>   <dbl>  <dbl>          <dbl> <dbl>
    ##  1 Specimen_001_B10_B10_009  79033.  69339.  9174.         18690.  3.02
    ##  2 Specimen_001_B10_B10_009 101337.  87574. 13184.         29887.  3.04
    ##  3 Specimen_001_B10_B10_009  51737.  56161.  3083.         18324.  3.06
    ##  4 Specimen_001_B10_B10_009  79904.  45085.  9957.         18100.  3.08
    ##  5 Specimen_001_B10_B10_009 124491.  97306. 15740.         28731.  3.09
    ##  6 Specimen_001_B10_B10_009  54360.  45015.  6175.         11918.  3.11
    ##  7 Specimen_001_B10_B10_009  64616.  88990. 11907          32413.  3.13
    ##  8 Specimen_001_B10_B10_009 109593.  64133. 12562.         18825.  3.15
    ##  9 Specimen_001_B10_B10_009  58504. 116384. 11592.         27630.  3.19
    ## 10 Specimen_001_B10_B10_009  38635.  51511.  7201.         21931.  3.21
    ## # ... with 2,719,990 more rows
…
  # if there are no stall sites, there are no codon repeats
  mutate(numberofcodonrepeats = ifelse(numberofstallsites == 0,
                                       "–", numberofcodonrepeats)) %>% 
  # the default initiation mutation is CAAA
  mutate(initiationmutation = if_else(is.na(initiationmutation), "CAAA", 
                                      initiationmutation)) %>% 
  mutate(initiationmutation = toupper(initiationmutation)) %>% 
  # arrange initiationmutation in this order 
  mutate(initiationmutation = fct_reorder(
      initiationmutation, 
      initiationmutation_order[initiationmutation])) %>% 
  print()
```

    ## # A tibble: 268 x 13
    ##    plate file  strain codonmutation numberofcodonre… stallsites
    ##    <int> <chr> <chr>  <chr>         <chr>            <chr>     
    ##  1     1 Spec… schp15 <NA>          –                <NA>      
    ##  2     1 Spec… schp19 cgg           –                <NA>      
    ##  3     1 Spec… schp20 aga           –                <NA>      
    ##  4     1 Spec… schp0… aga           –                <NA>      
    ##  5     1 Spec… schp2… cgg           5                1         
    ##  6     1 Spec… schp2… cgg           5                2         
    ##  7     1 Spec… schp2… cgg           5                3         
    ##  8     1 Spec… schp2… cgg           5                4         
    ##  9     1 Spec… schp2… cgg           5                5         
    ## 10     1 Spec… schp2… cgg           5                1         
    ## # ... with 258 more rows, and 7 more variables: initiationmutation <fct>,
    ## #   gene <chr>, gpdmkate2 <chr>, citrine <chr>, replicate <int>,
    ## #   note <chr>, numberofstallsites <dbl>
…
  # group by  each file (well)
  group_by(file) %>% 
  select(FITC.A, PE.Texas.Red.A) %>% 
  # calculate mean
  summarise_all(mean) %>% 
  # rename
  rename('yfp' = FITC.A, 'rfp' = PE.Texas.Red.A) %>% 
  # ratios
  mutate('yfp_rfp_ratio' = yfp / rfp * 10) %>% 
  # join annotations
  left_join(annotations, by = 'file') %>% 
  print()
```

    ## # A tibble: 272 x 16
    ##    file     yfp    rfp yfp_rfp_ratio plate strain codonmutation
    ##    <chr>  <dbl>  <dbl>         <dbl> <int> <chr>  <chr>        
    ##  1 Spec…  8641. 19610.         4.41      1 schp2… cgg          
    ##  2 Spec…  7606. 19659.         3.87      1 schp2… cgg          
    ##  3 Spec…   470. 17841.         0.264     1 schp15 <NA>         
    ##  4 Spec…  3585. 17445.         2.06      1 schp19 cgg          
    ##  5 Spec… 31806. 16912.        18.8       1 schp20 aga          
    ##  6 Spec… 21822. 20724.        10.5       1 schp0… aga          
    ##  7 Spec…  8060. 19944.         4.04      1 schp2… cgg          
    ##  8 Spec…  9939. 19714.         5.04      1 schp2… cgg          
    ##  9 Spec…  8472. 20219.         4.19      1 schp2… cgg          
    ## 10 Spec…  8967. 20124.         4.46      1 schp2… cgg          
    ## # ... with 262 more rows, and 9 more variables:
    ## #   numberofcodonrepeats <chr>, stallsites <chr>,
    ## #   initiationmutation <fct>, gene <chr>, gpdmkate2 <chr>, citrine <chr>,
    ## #   replicate <int>, note <chr>, numberofstallsites <dbl>
…
``` r
avg_data  <- by_file %>% 
  # anti_join(bad_wells) %>% 
  # strain is used to get replicates
  group_by(strain) %>% 
  # calculate mean and std.err
  mutate(mean_yfp = mean(yfp), 
         mean_rfp = mean(rfp)) %>% 
  ungroup() %>% 
  print()
```

    ## # A tibble: 272 x 18
    ##    file     yfp    rfp yfp_rfp_ratio plate strain codonmutation
    ##    <chr>  <dbl>  <dbl>         <dbl> <int> <chr>  <chr>        
    ##  1 Spec…  8641. 19610.         4.41      1 schp2… cgg          
    ##  2 Spec…  7606. 19659.         3.87      1 schp2… cgg          
    ##  3 Spec…   470. 17841.         0.264     1 schp15 <NA>         
    ##  4 Spec…  3585. 17445.         2.06      1 schp19 cgg          
    ##  5 Spec… 31806. 16912.        18.8       1 schp20 aga          
    ##  6 Spec… 21822. 20724.        10.5       1 schp0… aga          
    ##  7 Spec…  8060. 19944.         4.04      1 schp2… cgg          
    ##  8 Spec…  9939. 19714.         5.04      1 schp2… cgg          
    ##  9 Spec…  8472. 20219.         4.19      1 schp2… cgg          
    ## 10 Spec…  8967. 20124.         4.46      1 schp2… cgg          
    ## # ... with 262 more rows, and 11 more variables:
    ## #   numberofcodonrepeats <chr>, stallsites <chr>,
    ## #   initiationmutation <fct>, gene <chr>, gpdmkate2 <chr>, citrine <chr>,
    ## #   replicate <int>, note <chr>, numberofstallsites <dbl>, mean_yfp <dbl>,
    ## #   mean_rfp <dbl>
…
