…
  # get data from each file
  mutate(data = map(filename, . %>% 
                      flowCore::read.FCS(transformation = F, alter.names = T) %>% 
                      flowCore::exprs() %>% 
                      as_tibble())) %>% 
  # extract file name without .fcs extension and parent folder name
  mutate(file = str_extract(filename, '[^/]+(?=.fcs$)')) %>% 
  # get rid of unwanted columns
  select(-sno, -filename) %>% 
  # expand data out
  unnest() %>% 
  print()
```

    ## # A tibble: 1,380,080 x 6
    ##    file                       FSC.A  SSC.A FITC.A PE.Texas.Red.A  Time
    ##    <chr>                      <dbl>  <dbl>  <dbl>          <dbl> <dbl>
    ##  1 Specimen_001_B10_B10_009  33502. 25951.  2264.         12062.  3.06
    ##  2 Specimen_001_B10_B10_009  42993  46545.  4939.         18831.  3.06
    ##  3 Specimen_001_B10_B10_009  45250. 45427.  5371.         30490.  3.07
    ##  4 Specimen_001_B10_B10_009  51492. 37683.  4333.         18129.  3.07
    ##  5 Specimen_001_B10_B10_009  38781. 39045.  3963.         13536.  3.09
    ##  6 Specimen_001_B10_B10_009  29897. 25862.  2611.         10704.  3.11
    ##  7 Specimen_001_B10_B10_009 170399. 76483. 12768.         40444.  3.11
    ##  8 Specimen_001_B10_B10_009  39098. 52288.  3713.         17964.  3.12
    ##  9 Specimen_001_B10_B10_009  23473. 23840.  3561.         15948.  3.12
    ## 10 Specimen_001_B10_B10_009  45116. 33600.  4046.         16509.  3.14
    ## # ... with 1,380,070 more rows
…
``` r
annotations <- '../data/flow/initiation_pgk1_10xaag/sampleannotations.tsv' %>% 
                        read_tsv(col_types = list('plate' = col_integer())) %>% 
  # the default initiation mutation is CAAA
  mutate(initiationmutation = if_else(is.na(initiationmutation), "CAAA", 
                                      initiationmutation)) %>% 
  mutate(initiationmutation = toupper(initiationmutation)) %>% 
  # arrange initiationmutation in this order 
  mutate(initiationmutation = fct_reorder(
      initiationmutation, 
      initiationmutation_order[initiationmutation])) %>% 
  print()
```

    ## # A tibble: 138 x 16
    ##    plate file  strain codonmutation numberofcodonre… stallsites
    ##    <int> <chr> <chr>  <chr>         <chr>            <chr>     
    ##  1     1 Spec… by4741 na            na               na        
    ##  2     1 Spec… schp15 na            na               na        
    ##  3     1 Spec… schp19 cgg           6                1         
    ##  4     1 Spec… schp20 aga           6                na        
    ##  5     1 Spec… schp76 aga           5                na        
    ##  6     1 Spec… schp6… aag           10               1         
    ##  7     1 Spec… schp6… aag           10               1         
    ##  8     1 Spec… schp6… aag           10               1         
    ##  9     1 Spec… schp6… aag           10               1         
    ## 10     1 Spec… schp6… aag           10               1         
    ## # ... with 128 more rows, and 10 more variables: initiationmutation <fct>,
    ## #   genes <chr>, gpdmkate2 <chr>, citrine <chr>, replicate <int>,
    ## #   knockoutgenes <chr>, taggene <chr>, tag <chr>, genewithtag <chr>,
    ## #   note <chr>
…
  # group by  each file (well)
  group_by(file) %>% 
  select(FITC.A, PE.Texas.Red.A) %>% 
  # calculate mean
  summarise_all(mean) %>% 
  # rename
  rename('yfp' = FITC.A, 'rfp' = PE.Texas.Red.A) %>% 
  # ratios
  mutate('yfp_rfp_ratio' = yfp / rfp * 10) %>% 
  # join annotations
  left_join(annotations, by = 'file') %>% 
  print()
```

    ## # A tibble: 138 x 19
    ##    file     yfp    rfp yfp_rfp_ratio plate strain codonmutation
    ##    <chr>  <dbl>  <dbl>         <dbl> <int> <chr>  <chr>        
    ##  1 Spec… 4.38e3 2.07e4         2.11      1 schp6… aag          
    ##  2 Spec… 4.81e3 2.15e4         2.24      1 schp6… aag          
    ##  3 Spec… 6.67e1 2.87e1        23.3       1 by4741 na           
    ##  4 Spec… 2.67e2 2.14e4         0.125     1 schp15 na           
    ##  5 Spec… 2.33e3 1.88e4         1.24      1 schp19 cgg          
    ##  6 Spec… 2.06e4 1.88e4        11.0       1 schp20 aga          
    ##  7 Spec… 1.32e4 2.33e4         5.68      1 schp76 aga          
    ##  8 Spec… 1.66e3 2.02e4         0.821    NA <NA>   <NA>         
    ##  9 Spec… 4.14e3 2.14e4         1.93      1 schp6… aag          
    ## 10 Spec… 3.12e3 2.07e4         1.50      1 schp6… aag          
    ## # ... with 128 more rows, and 12 more variables:
    ## #   numberofcodonrepeats <chr>, stallsites <chr>,
    ## #   initiationmutation <fct>, genes <chr>, gpdmkate2 <chr>, citrine <chr>,
    ## #   replicate <int>, knockoutgenes <chr>, taggene <chr>, tag <chr>,
    ## #   genewithtag <chr>, note <chr>
…
``` r
avg_data  <- by_file %>% 
  # get rid of 3 strains that have wrong plasmid
  filter(note != "wrongplasmid" | is.na(note)) %>% 
  # strain is used to get replicates
  group_by(strain) %>% 
  # calculate mean and std.err
  mutate(mean_yfp = mean(yfp), 
         mean_rfp = mean(rfp)) %>% 
  ungroup() %>% 
  print()
```

    ## # A tibble: 135 x 21
    ##    file     yfp    rfp yfp_rfp_ratio plate strain codonmutation
    ##    <chr>  <dbl>  <dbl>         <dbl> <int> <chr>  <chr>        
    ##  1 Spec… 4.38e3 2.07e4         2.11      1 schp6… aag          
    ##  2 Spec… 4.81e3 2.15e4         2.24      1 schp6… aag          
    ##  3 Spec… 6.67e1 2.87e1        23.3       1 by4741 na           
    ##  4 Spec… 2.67e2 2.14e4         0.125     1 schp15 na           
    ##  5 Spec… 2.33e3 1.88e4         1.24      1 schp19 cgg          
    ##  6 Spec… 2.06e4 1.88e4        11.0       1 schp20 aga          
    ##  7 Spec… 1.32e4 2.33e4         5.68      1 schp76 aga          
    ##  8 Spec… 1.66e3 2.02e4         0.821    NA <NA>   <NA>         
    ##  9 Spec… 4.14e3 2.14e4         1.93      1 schp6… aag          
    ## 10 Spec… 3.12e3 2.07e4         1.50      1 schp6… aag          
    ## # ... with 125 more rows, and 14 more variables:
    ## #   numberofcodonrepeats <chr>, stallsites <chr>,
    ## #   initiationmutation <fct>, genes <chr>, gpdmkate2 <chr>, citrine <chr>,
    ## #   replicate <int>, knockoutgenes <chr>, taggene <chr>, tag <chr>,
    ## #   genewithtag <chr>, note <chr>, mean_yfp <dbl>, mean_rfp <dbl>
…
