…
  # get data from each file
  mutate(data = map(filename, . %>% 
                      flowCore::read.FCS(transformation = F, alter.names = T) %>% 
                      flowCore::exprs() %>% 
                      as_tibble())) %>% 
  # extract file name without .fcs extension and parent folder name
  mutate(file = str_extract(filename, '[^/]+(?=.fcs$)')) %>% 
  # get rid of unwanted columns
  select(-sno, -filename) %>% 
  # expand data out
  unnest() %>% 
  print()
```

    ## # A tibble: 1,860,000 x 6
    ##    file                      FSC.A  SSC.A FITC.A PE.Texas.Red.A  Time
    ##    <chr>                     <dbl>  <dbl>  <dbl>          <dbl> <dbl>
    ##  1 Specimen_001_B10_B10_009 32544. 32173. 14525.          6771.  3.02
    ##  2 Specimen_001_B10_B10_009 75715. 97547. 32507.         18091.  3.04
    ##  3 Specimen_001_B10_B10_009 58853. 59289. 24074.         12498.  3.04
    ##  4 Specimen_001_B10_B10_009 45562. 40830. 12983.          6981.  3.04
    ##  5 Specimen_001_B10_B10_009 62411. 64592. 22877.         11384.  3.04
    ##  6 Specimen_001_B10_B10_009 26348. 24270.  8126.          4776.  3.05
    ##  7 Specimen_001_B10_B10_009 30727. 28565.  9842.          5716.  3.06
    ##  8 Specimen_001_B10_B10_009 44781. 40857. 16668.          8475.  3.07
    ##  9 Specimen_001_B10_B10_009 39938. 40284. 16554.          8870.  3.07
    ## 10 Specimen_001_B10_B10_009 32820. 24154.  9252.          4408.  3.07
    ## # ... with 1,859,990 more rows
…
  # if there are no stall sites, there are no codon repeats
  mutate(numberofcodonrepeats = ifelse(numberofstallsites == 0,
                                       "–", numberofcodonrepeats)) %>%
  # the default initiation mutation is CAAA
  mutate(initiationmutation = if_else(is.na(initiationmutation), "CAAA",
                                      initiationmutation)) %>%
  mutate(initiationmutation = toupper(initiationmutation)) %>%
  # arrange initiationmutation in this order
  mutate(initiationmutation = fct_reorder(
      initiationmutation,
      initiationmutation_order[initiationmutation])) %>%
  print()
```

    ## # A tibble: 186 x 19
    ##    plate file  strain codonmutation numberofcodonre… stallsites
    ##    <int> <chr> <chr>  <chr>         <chr>            <chr>     
    ##  1     1 Spec… by4741 <NA>          –                <NA>      
    ##  2     1 Spec… schp0… <NA>          –                <NA>      
    ##  3     1 Spec… schp0… cgg           6                1         
    ##  4     1 Spec… schp0… aga           –                <NA>      
    ##  5     1 Spec… schp9… <NA>          –                <NA>      
    ##  6     1 Spec… schp9… <NA>          –                <NA>      
    ##  7     1 Spec… schp9… <NA>          –                <NA>      
    ##  8     1 Spec… schp9… <NA>          –                <NA>      
    ##  9     1 Spec… schp9… <NA>          –                <NA>      
    ## 10     1 Spec… schp9… <NA>          –                <NA>      
    ## # ... with 176 more rows, and 13 more variables: initiationmutation <fct>,
    ## #   gene <chr>, gpdmkate2 <chr>, citrine <chr>, replicate <int>,
    ## #   knockoutgenes <lgl>, taggene <lgl>, tag <lgl>, genewithtag <lgl>,
    ## #   parent <chr>, note <lgl>, initimut <chr>, numberofstallsites <dbl>
…
``` r
by_file <- flowdata  %>% 
  # group by  each file (well)
  group_by(file) %>% 
  select(FITC.A, PE.Texas.Red.A) %>% 
  # calculate mean
  summarise_all(mean) %>% 
  # rename
  rename('yfp' = FITC.A, 'rfp' = PE.Texas.Red.A) %>% 
  # join annotations
  left_join(annotations, by = 'file') %>% 
  print()
```

    ## # A tibble: 186 x 21
    ##    file     yfp    rfp plate strain codonmutation numberofcodonre…
    ##    <chr>  <dbl>  <dbl> <int> <chr>  <chr>         <chr>           
    ##  1 Spec… 1.60e4 8.21e3     1 schp9… <NA>          –               
    ##  2 Spec… 1.13e4 7.56e1     1 schp9… <NA>          –               
    ##  3 Spec… 6.22e1 3.46e1     1 by4741 <NA>          –               
    ##  4 Spec… 2.55e2 1.75e4     1 schp0… <NA>          –               
    ##  5 Spec… 2.89e3 1.73e4     1 schp0… cgg           6               
    ##  6 Spec… 2.23e4 1.64e4     1 schp0… aga           –               
    ##  7 Spec… 2.89e2 1.78e2     1 schp9… <NA>          –               
    ##  8 Spec… 1.49e4 4.52e3    NA <NA>   <NA>          <NA>            
    ##  9 Spec… 1.83e4 9.60e3     1 schp9… <NA>          –               
    ## 10 Spec… 1.37e4 7.09e3     1 schp9… <NA>          –               
    ## # ... with 176 more rows, and 14 more variables: stallsites <chr>,
    ## #   initiationmutation <fct>, gene <chr>, gpdmkate2 <chr>, citrine <chr>,
    ## #   replicate <int>, knockoutgenes <lgl>, taggene <lgl>, tag <lgl>,
    ## #   genewithtag <lgl>, parent <chr>, note <lgl>, initimut <chr>,
    ## #   numberofstallsites <dbl>
…
``` r
avg_data  <- by_file %>% 
  # anti_join(bad_wells) %>% 
  # strain is used to get replicates
  group_by(strain) %>% 
  # calculate mean and std.err
  mutate(mean_yfp = mean(yfp), 
         mean_rfp = mean(rfp)) %>% 
  ungroup() %>% 
  print()
```

    ## # A tibble: 186 x 23
    ##    file     yfp    rfp plate strain codonmutation numberofcodonre…
    ##    <chr>  <dbl>  <dbl> <int> <chr>  <chr>         <chr>           
    ##  1 Spec… 1.60e4 8.21e3     1 schp9… <NA>          –               
    ##  2 Spec… 1.13e4 7.56e1     1 schp9… <NA>          –               
    ##  3 Spec… 6.22e1 3.46e1     1 by4741 <NA>          –               
    ##  4 Spec… 2.55e2 1.75e4     1 schp0… <NA>          –               
    ##  5 Spec… 2.89e3 1.73e4     1 schp0… cgg           6               
    ##  6 Spec… 2.23e4 1.64e4     1 schp0… aga           –               
    ##  7 Spec… 2.89e2 1.78e2     1 schp9… <NA>          –               
    ##  8 Spec… 1.49e4 4.52e3    NA <NA>   <NA>          <NA>            
    ##  9 Spec… 1.83e4 9.60e3     1 schp9… <NA>          –               
    ## 10 Spec… 1.37e4 7.09e3     1 schp9… <NA>          –               
    ## # ... with 176 more rows, and 16 more variables: stallsites <chr>,
    ## #   initiationmutation <fct>, gene <chr>, gpdmkate2 <chr>, citrine <chr>,
    ## #   replicate <int>, knockoutgenes <lgl>, taggene <lgl>, tag <lgl>,
    ## #   genewithtag <lgl>, parent <chr>, note <lgl>, initimut <chr>,
    ## #   numberofstallsites <dbl>, mean_yfp <dbl>, mean_rfp <dbl>
…
