…
Read protein count data
=======================

``` r
psr_data <- read_tsv("tables/psr_stats.tsv") %>% 
  print()
```

    ## # A tibble: 405 x 6
    ##    sim_id mean_p_per_m sd_p_per_m total_p total_time     psr
    ##     <int>        <int> <chr>        <int>      <int>   <dbl>
    ##  1      0         3851 <NA>          3851     999918 0.00385
    ##  2      1         1275 <NA>          1275     999668 0.00128
    ##  3     10         3245 <NA>          3245     999981 0.00324
    ##  4    100         8886 <NA>          8886     999945 0.00889
    ##  5    101         7613 <NA>          7613     999983 0.00761
    ##  6    102         8844 <NA>          8844     999817 0.00885
    ##  7    103         7412 <NA>          7412     999992 0.00741
    ##  8    104         8673 <NA>          8673     999939 0.00867
    ##  9    105        15427 <NA>         15427     999988 0.0154 
    ## 10    106         7207 <NA>          7207     999956 0.00721
    ## # ... with 395 more rows

Read collision data
===================

``` r
collision_data <- read_tsv("tables/collision_stats.tsv") %>% 
  print()
```

    ## # A tibble: 405 x 6
    ##    sim_id mean_p_per_m sd_p_per_m total_collision total_time collision_freq
    ##     <int>        <int> <chr>                <int>      <int>          <dbl>
    ##  1      0         3754 <NA>                  3754     999918       0.00375 
    ##  2      1         1258 <NA>                  1258     999668       0.00126 
    ##  3     10          965 <NA>                   965     999981       0.000965
    ##  4    100        11022 <NA>                 11022     999945       0.0110  
    ##  5    101        11178 <NA>                 11178     999983       0.0112  
    ##  6    102         9936 <NA>                  9936     999817       0.00994 
    ##  7    103         9298 <NA>                  9298     999992       0.00930 
    ##  8    104         7737 <NA>                  7737     999939       0.00774 
    ##  9    105        15350 <NA>                 15350     999988       0.0154  
    ## 10    106         7637 <NA>                  7637     999956       0.00764 
    ## # ... with 395 more rows
…
                                        preterm_intact_model)) %>% 
  rename(sim_id = X1) %>%
  mutate(k_elong_stall = str_split(k_elong_stall, ",")) %>%
  mutate(k_elong_stall = map(k_elong_stall, as.numeric)) %>%
  mutate(k_elong_stall = map(k_elong_stall, function(x) unique(x))) %>%
  unnest() %>%
  mutate(x_stall = stringr::str_split(x_stall, ',')) %>%
  mutate(k_stall = k_elong_stall / as.numeric(n_stall)) %>%
  mutate(n_stall = factor(n_stall)) %>%
  select(sim_id, k_init, k_elong_stall, k_stall, x_stall, n_stall,
         preterm_intact_model, preterm_intact_rate) %>%
  print()
```

    ## # A tibble: 405 x 8
    ##    sim_id  k_init k_elong_stall k_stall x_stall n_stall preterm_intact_…
    ##     <int>   <dbl>         <dbl>   <dbl> <list>  <fct>   <chr>           
    ##  1      0 0.00391          0.12    0.02 <chr [… 6       trafficjam      
    ##  2      1 0.00391          0.12    0.02 <chr [… 6       simple          
    ##  3      2 0.00391          0.12    0.02 <chr [… 6       simple          
    ##  4      3 0.00391          0.12    0.02 <chr [… 6       hit5            
    ##  5      4 0.00391          0.12    0.02 <chr [… 6       hit3            
    ##  6      5 0.00391          0.12    0.02 <chr [… 6       simple          
    ##  7      6 0.00391          0.12    0.02 <chr [… 6       simple          
    ##  8      7 0.00391          0.12    0.02 <chr [… 6       hit5            
    ##  9      8 0.00391          0.12    0.02 <chr [… 6       hit3            
    ## 10      9 0.00391          0.12    0.02 <chr [… 6       hit5            
    ## # ... with 395 more rows, and 1 more variable: preterm_intact_rate <dbl>

Combine all data into a single table
------------------------------------

``` r
data <- annotations %>% 
  left_join(psr_data, by = "sim_id") %>% 
  left_join(collision_data, by = "sim_id") %>% 
  print()
```

    ## # A tibble: 405 x 18
    ##    sim_id  k_init k_elong_stall k_stall x_stall n_stall preterm_intact_…
    ##     <int>   <dbl>         <dbl>   <dbl> <list>  <fct>   <chr>           
    ##  1      0 0.00391          0.12    0.02 <chr [… 6       trafficjam      
    ##  2      1 0.00391          0.12    0.02 <chr [… 6       simple          
    ##  3      2 0.00391          0.12    0.02 <chr [… 6       simple          
    ##  4      3 0.00391          0.12    0.02 <chr [… 6       hit5            
    ##  5      4 0.00391          0.12    0.02 <chr [… 6       hit3            
    ##  6      5 0.00391          0.12    0.02 <chr [… 6       simple          
    ##  7      6 0.00391          0.12    0.02 <chr [… 6       simple          
    ##  8      7 0.00391          0.12    0.02 <chr [… 6       hit5            
    ##  9      8 0.00391          0.12    0.02 <chr [… 6       hit3            
    ## 10      9 0.00391          0.12    0.02 <chr [… 6       hit5            
    ## # ... with 395 more rows, and 11 more variables:
    ## #   preterm_intact_rate <dbl>, mean_p_per_m.x <int>, sd_p_per_m.x <chr>,
    ## #   total_p <int>, total_time.x <int>, psr <dbl>, mean_p_per_m.y <int>,
    ## #   sd_p_per_m.y <chr>, total_collision <int>, total_time.y <int>,
    ## #   collision_freq <dbl>
…
