…
count_data <- list.files("../../../tables/htseq/initiation_pgk1_aag_ccg/", 
                         pattern = "init_codon_pairs.tsv",
                         full.names = T) %>% 
  enframe("sno", "file") %>% 
  mutate(barcode = str_extract(file, "(?<=/)[ACTG]{6}")) %>% 
  mutate(data = map(file, read_tsv)) %>% 
  unnest() %>% 
  select(-sno, -file, -index) %>% 
  left_join(annotations %>% select(-primer), by = "barcode") %>% 
  filter(count > 100) %>% 
  arrange(desc(count)) %>% 
  print()
```

    ## # A tibble: 9,947 x 6
    ##    barcode codon         count init    type  replicate
    ##    <chr>   <chr>         <int> <chr>   <chr>     <int>
    ##  1 TCAAGT  TCAGAAAAGAAA 640012 CAAAATG cdna          4
    ##  2 CGTGAT  AGTGAAAAGAAA 598538 CAAAATG gdna          1
    ##  3 GCCTAA  TCGGAAAAGAAA 549840 CAAAATG gdna          3
    ##  4 TCAAGT  CCGCCGCCGCCG 432441 CTGCATG cdna          4
    ##  5 ATTGGC  AGCGAAAAGAAA 414185 CAAAATG cdna          2
    ##  6 ATTGGC  TCCGAAAAGAAA 357102 CAAAATG cdna          2
    ##  7 TGGTCA  AGTGAAAAGAAA 353748 CAAAATG gdna          4
    ##  8 TCAAGT  CCACCACCACCA 298442 CCGCATG cdna          4
    ##  9 TCAAGT  CCGCCGCCGCCG 293714 ACGCATG cdna          4
    ## 10 TCAAGT  CCACCACCACCA 288654 CTGCATG cdna          4
    ## # ... with 9,937 more rows
…
