…
``` r
annotations <- "/fh/fast/subramaniam_a/db/rasi/genomes/yeast/Saccharomyces_cerevisiae/sgd/S288C_reference_genome_R64-1-1_20110203/saccharomyces_cerevisiae_R64-1-1_20110208.gff" %>% 
  rtracklayer::readGFF() %>% 
  as_tibble()
```

# Load RQC stalls for joining with high TE genes

``` r
rqc_stalls <- read_tsv("../../rqc_stalls_in_yeast_orfs/tables/ngrams_annotated.tsv") %>% 
  select(id, pos, ngram_weight, ngram) %>%
  print()
```

    ## # A tibble: 1,251 x 4
    ##    id        pos ngram_weight ngram     
    ##    <chr>   <dbl>        <dbl> <chr>     
    ##  1 YHR131C   321           10 RRRRRRRRRR
    ##  2 YIL159W   768           10 PPPPPPPPPP
    ##  3 YNL271C  1238           10 PPPPPPPPPP
    ##  4 YOR019W   712           10 KKKKKKKKKK
    ##  5 YBL091C    40            9 KKKKNKKKKK
    ##  6 YDL146W   473            9 APPPPPPPPP
    ##  7 YDL173W   273            9 KEKKKKKKKK
    ##  8 YDR174W   227            9 KKKKKKKKDK
    ##  9 YDR334W   231            9 KKKRGRKKKK
    ## 10 YHL019C   174            9 KRKDKKKKRK
    ## # … with 1,241 more rows
…
  mutate(sample = str_extract(file, "RPF|RiboZero")) %>% 
  mutate(data = map(file, . %>% read_tsv(col_names = F))) %>% 
  select(-sno, -file) %>% 
  unnest() %>% 
  magrittr::set_colnames(c("sampletype", "id", "rpkm")) %>% 
  spread(sampletype, rpkm) %>% 
  dplyr::rename(ribo = RPF, rna = RiboZero) %>% 
  mutate(te = log2(ribo / rna)) %>% 
  filter(!is.na(te) & ribo > 5 & rna > 5) %>%
  left_join(annotations %>% select(gene, ID, Note), by = c("id" = "ID")) %>%
  mutate(Note = as.character(Note)) %>% 
  print()
```

    ## # A tibble: 4,507 x 6
    ##    id         rna   ribo      te gene  Note                                     
    ##    <chr>    <dbl>  <dbl>   <dbl> <chr> <chr>                                    
    ##  1 YAL001C   37.8 1.81e1 -1.06   TFC3  Largest of six subunits of the RNA polym…
    ##  2 YAL002W   22.2 5.73e0 -1.95   VPS8  Membrane-associated protein that interac…
    ##  3 YAL003W 4622.  7.07e3  0.612  EFB1  Translation elongation factor 1 beta; st…
    ##  4 YAL007C  212.  2.09e2 -0.0202 ERP2  Protein that forms a heterotrimeric comp…
    ##  5 YAL008W   50.0 9.56e1  0.935  FUN14 Mitochondrial protein of unknown function
    ##  6 YAL009W   35.0 1.89e1 -0.888  SPO7  Putative regulatory subunit of Nem1p-Spo…
    ##  7 YAL010C   16.7 1.10e1 -0.593  MDM10 Subunit of both the ERMES complex that l…
    ##  8 YAL011W   17.4 1.05e1 -0.729  SWC3  Protein of unknown function, component o…
    ##  9 YAL012W  568.  1.09e3  0.945  CYS3  Cystathionine gamma-lyase, catalyzes one…
    ## 10 YAL013W   25.5 4.07e1  0.673  DEP1  Transcriptional modulator involved in re…
    ## # … with 4,497 more rows

# Look at high TE genes with potential RQC stalls

``` r
te_stall_data <- te_data %>% 
  left_join(rqc_stalls, by = "id") %>% 
  arrange(desc(te)) %>% 
  select(te, gene, pos, ngram, ngram_weight, everything()) %>% 
  print()
```

    ## # A tibble: 4,507 x 9
    ##       te gene     pos ngram  ngram_weight id       rna   ribo Note              
    ##    <dbl> <chr>  <dbl> <chr>         <dbl> <chr>  <dbl>  <dbl> <chr>             
    ##  1  2.89 TMA23    157 KKKKK…            9 YMR2… 7.46e0   55.3 Nucleolar protein…
    ##  2  1.75 MFA1      NA <NA>             NA YDR4… 4.74e2 1596.  Mating pheromone …
    ##  3  1.69 VPS24     NA <NA>             NA YKL0… 1.96e1   63.3 One of four subun…
    ##  4  1.65 NOP16    215 KRRLL…            7 YER0… 6.71e1  211.  Constituent of 66…
    ##  5  1.65 TMA10     NA <NA>             NA YLR3… 4.35e1  136.  Protein of unknow…
    ##  6  1.59 TIM17     NA <NA>             NA YJL1… 9.38e1  283.  Essential subunit…
    ##  7  1.56 <NA>      NA <NA>             NA YDL0… 7.31e1  216.  Tail-anchored pla…
    ##  8  1.52 RPS29A    NA <NA>             NA YLR3… 2.75e3 7897.  Protein component…
    ##  9  1.47 MFA2      NA <NA>             NA YNL1… 6.44e2 1781.  Mating pheromone …
    ## 10  1.47 CIS3      NA <NA>             NA YJL1… 6.93e2 1918.  Mannose-containin…
    ## # … with 4,497 more rows
…
