…
stall_cvg <- bind_rows(stall_cvg_plus, stall_cvg_minus) %>% 
  # create a sequence from start to stop for each range
  mutate(pos = map2(start, end, function(x, y) seq(from = x, to = y))) %>% 
  # expand each range to equal its length
  unnest()  %>% 
  # mutate and unnest to create a single pos for each location
  mutate(start = pos, end = pos) %>% 
  select(-pos, -width) %>% 
  print()
```

    ## # A tibble: 843,402 x 5
    ##    seqnames    start   end strand score
    ##    <chr>       <int> <int> <fct>  <dbl>
    ##  1 YIL159W_KPR     1     1 *          0
    ##  2 YIL159W_KPR     2     2 *          0
    ##  3 YIL159W_KPR     3     3 *          0
    ##  4 YIL159W_KPR     4     4 *          0
    ##  5 YIL159W_KPR     5     5 *          0
    ##  6 YIL159W_KPR     6     6 *          0
    ##  7 YIL159W_KPR     7     7 *          1
    ##  8 YIL159W_KPR     8     8 *          0
    ##  9 YIL159W_KPR     9     9 *          1
    ## 10 YIL159W_KPR    10    10 *          0
    ## # ... with 843,392 more rows

Normalize the cvg within each stall and threshold to stalls with mean cvg &gt;= 1
=================================================================================

``` r
norm_cvg <- stall_cvg %>% 
  group_by(seqnames) %>% 
  mutate(mean_score = mean(score)) %>% 
  mutate(norm_score = score / mean_score) %>%
  ungroup() %>% 
  filter(mean_score >= 1) %>% 
  print()
```

    ## # A tibble: 280,532 x 7
    ##    seqnames    start   end strand score mean_score norm_score
    ##    <chr>       <int> <int> <fct>  <dbl>      <dbl>      <dbl>
    ##  1 YDL173W_KPR     1     1 *         13       4.92      2.64 
    ##  2 YDL173W_KPR     2     2 *          3       4.92      0.610
    ##  3 YDL173W_KPR     3     3 *          8       4.92      1.63 
    ##  4 YDL173W_KPR     4     4 *         37       4.92      7.52 
    ##  5 YDL173W_KPR     5     5 *          5       4.92      1.02 
    ##  6 YDL173W_KPR     6     6 *         10       4.92      2.03 
    ##  7 YDL173W_KPR     7     7 *         18       4.92      3.66 
    ##  8 YDL173W_KPR     8     8 *          1       4.92      0.203
    ##  9 YDL173W_KPR     9     9 *          3       4.92      0.610
    ## 10 YDL173W_KPR    10    10 *          9       4.92      1.83 
    ## # ... with 280,522 more rows
…
