…
Get TE from the the paper
=========================

``` r
te_paper <- read_tsv("../annotations/GSE53313_Cerevisiae_RNA_RPF.txt", skip = 2) %>% 
  setNames(c("id", "total", "ribo", "te")) %>% 
  filter(!is.na(te) & ribo > 5 & total > 5) %>%
  print()
```

    ## # A tibble: 4,442 x 4
    ##    id       total    ribo      te
    ##    <chr>    <dbl>   <dbl>   <dbl>
    ##  1 YAL001C   34.5   18.0  -0.942 
    ##  2 YAL002W   19.8    5.37 -1.88  
    ##  3 YAL003W 4168.  6818.    0.710 
    ##  4 YAL007C  193.   195.    0.0135
    ##  5 YAL008W   44.7   85.7   0.941 
    ##  6 YAL009W   31.0   17.5  -0.829 
    ##  7 YAL010C   14.9   10.3  -0.536 
    ##  8 YAL011W   16.3   10.4  -0.652 
    ##  9 YAL012W  518.  1103.    1.09  
    ## 10 YAL013W   23.6   40.2   0.768 
    ## # ... with 4,432 more rows

Load RQC stalls for joining with high TE genes
==============================================

``` r
rqc_stalls <- read_tsv("../../rqc_stalls_in_yeast_orfs/tables/ngrams_annotated.tsv") %>% 
  mutate(stall = if_else(stall %in% c("KR", "P"), "KPR", stall)) %>%
  print()
```

    ## # A tibble: 1,251 x 7
    ##    id     ngram   ngram_weight   pos stall gene  Note                     
    ##    <chr>  <chr>          <int> <int> <chr> <chr> <chr>                    
    ##  1 YHR13… RRRRRR…           10   321 KPR   <NA>  Putative protein of unkn…
    ##  2 YIL15… PPPPPP…           10   768 KPR   BNR1  Formin, nucleates the fo…
    ##  3 YNL27… PPPPPP…           10  1238 KPR   BNI1  Formin, nucleates the fo…
    ##  4 YOR01… KKKKKK…           10   712 KPR   <NA>  Protein of unknown funct…
    ##  5 YBL09… KKKKNK…            9    40 KPR   MAP2  Methionine aminopeptidas…
    ##  6 YDL14… APPPPP…            9   473 KPR   LDB17 Protein involved in the …
    ##  7 YDL17… KEKKKK…            9   273 KPR   PAR32 Putative protein of unkn…
    ##  8 YDR17… KKKKKK…            9   227 KPR   HMO1  Chromatin associated hig…
    ##  9 YDR33… KKKRGR…            9   231 KPR   SWR1  Swi2/Snf2-related ATPase…
    ## 10 YHL01… KRKDKK…            9   174 KPR   APM2  Protein of unknown funct…
    ## # ... with 1,241 more rows
…
``` r
te_calculated <- tx_counts %>% 
  group_by(seqnames, sample) %>% 
  summarize(counts = sum(width * score)) %>% 
  ungroup() %>% 
  spread(sample, counts) %>% 
  filter(ribo > 100 & total > 100) %>%
  mutate(te = log2(ribo / total / sum(ribo) * sum(total))) %>%
  dplyr::rename(id = seqnames) %>% 
  print()
```

    ## # A tibble: 4,284 x 4
    ##    id        ribo total     te
    ##    <fct>    <dbl> <dbl>  <dbl>
    ##  1 YAL001C   3232   867 -1.18 
    ##  2 YAL002W   1122   559 -2.07 
    ##  3 YAL003W 223552 19006  0.478
    ##  4 YAL005C 701880 74785  0.152
    ##  5 YAL007C   6906   892 -0.126
    ##  6 YAL008W   2897   201  0.771
    ##  7 YAL009W    753   181 -1.02 
    ##  8 YAL010C    838   166 -0.743
    ##  9 YAL011W   1015   218 -0.859
    ## 10 YAL012W  66467  4470  0.816
    ## # ... with 4,274 more rows
…
Look at high TE (paper) genes with potential RQC stalls
=======================================================

``` r
te_paper_stall_data <- te_paper %>% 
  left_join(rqc_stalls, by = "id") %>%
  arrange(desc(te)) %>%
  select(te, gene, pos, ngram, ngram_weight, everything()) %>%
  print()
```

    ## # A tibble: 4,442 x 10
    ##       te gene    pos ngram  ngram_weight id    total   ribo stall Note    
    ##    <dbl> <chr> <int> <chr>         <int> <chr> <dbl>  <dbl> <chr> <chr>   
    ##  1  1.98 <NA>     NA <NA>             NA YLR4…  80.8  318.  <NA>  <NA>    
    ##  2  1.84 <NA>     NA <NA>             NA YPR0… 363.  1296.  <NA>  <NA>    
    ##  3  1.76 <NA>     NA <NA>             NA YMR1… 913.  3084.  <NA>  <NA>    
    ##  4  1.71 <NA>     NA <NA>             NA YJL1…  62.0  203.  <NA>  <NA>    
    ##  5  1.70 <NA>     NA <NA>             NA YDL0…  68.8  224.  <NA>  <NA>    
    ##  6  1.69 NOP16   215 KRRLL…            7 YER0…  59.9  193.  KPR   Constit…
    ##  7  1.65 <NA>     NA <NA>             NA YKL0…  19.1   60.0 <NA>  <NA>    
    ##  8  1.63 <NA>     NA <NA>             NA YBR0… 123.   382.  <NA>  <NA>    
    ##  9  1.60 <NA>     NA <NA>             NA YKL1… 335.  1016.  <NA>  <NA>    
    ## 10  1.58 <NA>     NA <NA>             NA YOR2…  30.2   90.5 <NA>  <NA>    
    ## # ... with 4,432 more rows
…
Look at high TE (calculated) genes with potential RQC stalls
============================================================

``` r
te_calc_stall_data <- te_calculated %>% 
  left_join(rqc_stalls, by = "id") %>%
  arrange(desc(te)) %>%
  select(te, gene, pos, ngram, ngram_weight, everything()) %>%
  print()
```

    ## # A tibble: 4,284 x 10
    ##       te gene    pos ngram  ngram_weight id     ribo total stall Note     
    ##    <dbl> <chr> <int> <chr>         <int> <chr> <dbl> <dbl> <chr> <chr>    
    ##  1  2.02 <NA>     NA <NA>             NA YDL0… 66683  1944 <NA>  <NA>     
    ##  2  1.90 <NA>     NA <NA>             NA YLR4…  4606   146 <NA>  <NA>     
    ##  3  1.65 <NA>     NA <NA>             NA YPR0… 12927   489 <NA>  <NA>     
    ##  4  1.58 <NA>     NA <NA>             NA YDR4…  8761   348 <NA>  <NA>     
    ##  5  1.53 NOP16   215 KRRLL…            7 YER0…  7432   305 KPR   Constitu…
    ##  6  1.51 <NA>     NA <NA>             NA YDR0… 89386  3719 <NA>  <NA>     
    ##  7  1.50 <NA>     NA <NA>             NA YJL1…  6912   289 <NA>  <NA>     
    ##  8  1.45 <NA>     NA <NA>             NA YDL0…  3557   154 <NA>  <NA>     
    ##  9  1.38 <NA>     NA <NA>             NA YLR3… 71326  3240 <NA>  <NA>     
    ## 10  1.38 <NA>     NA <NA>             NA YDR3…  3033   138 <NA>  <NA>     
    ## # ... with 4,274 more rows
…
te_preceding_stalls <- tx_counts %>% 
  left_join(rqc_stalls %>% select(id, pos), by = c("seqnames" = "id")) %>% 
  mutate(pos = if_else(is.na(pos), median_stall_loc, pos)) %>% 
  filter(start < 3*pos + 1) %>% 
  group_by(seqnames, sample) %>% 
  summarize(counts = sum(width * score)) %>% 
  ungroup() %>% 
  spread(sample, counts) %>% 
  filter(ribo > 100 & total > 100) %>%
  mutate(te = log2(ribo / total / sum(ribo) * sum(total))) %>%
  dplyr::rename(id = seqnames) %>% 
  print()
```

    ## # A tibble: 3,622 x 4
    ##    id        ribo total     te
    ##    <chr>    <dbl> <dbl>  <dbl>
    ##  1 YAL001C    869   203 -1.19 
    ##  2 YAL003W 223552 19006  0.266
    ##  3 YAL005C 208604 19538  0.126
    ##  4 YAL007C   6906   891 -0.336
    ##  5 YAL008W   2897   201  0.559
    ##  6 YAL009W    595   171 -1.49 
    ##  7 YAL012W  32012  2135  0.616
    ##  8 YAL014C    986   270 -1.42 
    ##  9 YAL016W   4722   547 -0.180
    ## 10 YAL017W   1304   266 -0.996
    ## # ... with 3,612 more rows

Look at high TE (calculated only preceding stall) genes with potential RQC stalls
=================================================================================

``` r
te_preceding_stall_data <- te_preceding_stalls %>% 
  left_join(rqc_stalls, by = "id") %>%
  arrange(desc(te)) %>%
  select(te, gene, pos, ngram, ngram_weight, everything()) %>%
  print()
```

    ## # A tibble: 3,622 x 10
    ##       te gene    pos ngram  ngram_weight id     ribo total stall Note     
    ##    <dbl> <chr> <int> <chr>         <int> <chr> <dbl> <dbl> <chr> <chr>    
    ##  1  1.81 <NA>     NA <NA>             NA YDL0… 66683  1944 <NA>  <NA>     
    ##  2  1.70 HTB1     28 DGKKR…            6 YDR2… 10546   331 KPR   Histone …
    ##  3  1.69 <NA>     NA <NA>             NA YLR4…  4606   146 <NA>  <NA>     
    ##  4  1.49 <NA>     NA <NA>             NA YDR0… 60140  2195 <NA>  <NA>     
    ##  5  1.44 NOP16   215 KRRLL…            7 YER0…  6866   259 KPR   Constitu…
    ##  6  1.43 <NA>     NA <NA>             NA YPR0… 12927   489 <NA>  <NA>     
    ##  7  1.36 <NA>     NA <NA>             NA YDR4…  8761   348 <NA>  <NA>     
    ##  8  1.29 <NA>     NA <NA>             NA YJL1…  6912   289 <NA>  <NA>     
    ##  9  1.24 <NA>     NA <NA>             NA YDL0…  3557   154 <NA>  <NA>     
    ## 10  1.21 NPL3     94 PQPYY…            7 YDR4…  8231   363 KPR   RNA-bind…
    ## # ... with 3,612 more rows
…
