…
``` r
strain_annotations <- read_tsv("../../data/htseq/strain_annotations.tsv") %>% 
  print()
```

    ## # A tibble: 54 x 6
    ##      row plasmid    init  codon  gene  label 
    ##    <int> <chr>      <chr> <chr>  <chr> <chr> 
    ##  1     1 phpsc354-1 CAAA  aagaag pgk1  10×aag
    ##  2     2 phpsc355-1 CCGC  aagaag pgk1  10×aag
    ##  3     3 phpsc356-1 CCAA  aagaag pgk1  10×aag
    ##  4     4 phpsc357-1 CCAC  aagaag pgk1  10×aag
    ##  5     5 phpsc358-1 CCGA  aagaag pgk1  10×aag
    ##  6     6 phpsc359-1 CTGC  aagaag pgk1  10×aag
    ##  7     7 phpsc360-1 AAAA  aagaag pgk1  10×aag
    ##  8     8 phpsc361-1 ACGC  aagaag pgk1  10×aag
    ##  9     9 phpsc362-1 CTG   aagaag pgk1  10×aag
    ## 10    10 phpsc363-1 CAAA  agaaga pgk1  10×aga
    ## # ... with 44 more rows

``` r
barcode_annotations <- read_tsv("../../data/htseq/barcode_annotations.tsv") %>% 
  print()
```

    ## # A tibble: 210 x 4
    ##    plate  well  primer_name      barcode 
    ##    <chr>  <chr> <chr>            <chr>   
    ##  1 plate1 A1    cyc1_rep1_bc1_R  GTTTGTTT
    ##  2 plate1 B1    cyc1_rep1_bc2_R  CCGTGTTT
    ##  3 plate1 C1    cyc1_rep1_bc3_R  TAGTGTTT
    ##  4 plate1 D1    cyc1_rep1_bc4_R  GGCGGTTT
    ##  5 plate1 E1    cyc1_rep1_bc5_R  GATCGTTT
    ##  6 plate1 F1    cyc1_rep1_bc6_R  TCACGTTT
    ##  7 plate1 G1    cyc1_rep1_bc7_R  TGTAGTTT
    ##  8 plate1 H1    cyc1_rep1_bc8_R  CACAGTTT
    ##  9 plate1 A2    cyc1_rep1_bc9_R  CTTTCTTT
    ## 10 plate1 B2    cyc1_rep1_bc10_R GCCTCTTT
    ## # ... with 200 more rows
…
  # get ride of plate and well columns
  select(-matches("^plate|^well")) %>% 
  # gather all oligos into single well
  gather(oligo, location, -plasmid) %>% 
  # separate again into plate and well
  separate(location, c("plate", "well")) %>% 
  select(-oligo) %>% 
  # clean up A01 to A1, B02 to B2 etc.
  mutate(well = str_replace(well, "([A-Z])0(\\d)", "\\1\\2")) %>% 
  # remove empty wells  
  filter(well != "NA") %>% 
  print()
```

    ## # A tibble: 210 x 3
    ##    plasmid    plate  well 
    ##    <chr>      <chr>  <chr>
    ##  1 phpsc354-1 plate1 A1   
    ##  2 phpsc355-1 plate1 B1   
    ##  3 phpsc356-1 plate1 C1   
    ##  4 phpsc357-1 plate1 D1   
    ##  5 phpsc358-1 plate1 E1   
    ##  6 phpsc359-1 plate1 F1   
    ##  7 phpsc360-1 plate1 G1   
    ##  8 phpsc361-1 plate1 H1   
    ##  9 phpsc363-1 plate1 A2   
    ## 10 phpsc364-1 plate1 B2   
    ## # ... with 200 more rows
…
  rename(barcode = r1_barcode) %>% 
  left_join(barcode_annotations, by = "barcode") %>% 
  # keep only columns of interest
  select(-primer_name) %>% 
  left_join(strain_barcode_annotations, by = c("plate", "well")) %>% 
  # keep only columns of interest
  select(-plate, -well) %>% 
  left_join(strain_annotations, by = "plasmid") %>% 
  # keep only columns of interest
  select(-row) %>% 
  arrange(count) %>%
  print()
```

    ## # A tibble: 2,518 x 9
    ##    count barcode  strain type  plasmid    init  codon  gene  label 
    ##    <int> <chr>    <chr>  <chr> <chr>      <chr> <chr>  <chr> <chr> 
    ##  1     1 TTATAGCC scHP15 gdna  phpsc361-1 ACGC  aagaag pgk1  10×aag
    ##  2     1 AGGCAACG scHP15 gdna  phpsc316-2 CCAA  ccacca pgk1  8×cca 
    ##  3     1 AGGCAACG DOM34Δ gdna  phpsc316-2 CCAA  ccacca pgk1  8×cca 
    ##  4     2 TTATAGCC BY4741 cdna  phpsc361-1 ACGC  aagaag pgk1  10×aag
    ##  5     2 AGGCAACG BY4741 cdna  phpsc316-2 CCAA  ccacca pgk1  8×cca 
    ##  6     2 TTATAGCC LTN1Δ  cdna  phpsc361-1 ACGC  aagaag pgk1  10×aag
    ##  7     2 TTATAGCC LTN1Δ  gdna  phpsc361-1 ACGC  aagaag pgk1  10×aag
    ##  8     3 AGGCAACG BY4741 gdna  phpsc316-2 CCAA  ccacca pgk1  8×cca 
    ##  9     3 TTATAGCC ASC1Δ  cdna  phpsc361-1 ACGC  aagaag pgk1  10×aag
    ## 10     3 AGGCAACG ASC1Δ  gdna  phpsc316-2 CCAA  ccacca pgk1  8×cca 
    ## # ... with 2,508 more rows
…
  # get rid of NA
  filter(!is.na(lfc)) %>%
  # median normalize each group
  group_by(label, strain, init) %>%
  summarize(mean_lfc = mean(lfc), se_lfc = var(lfc) / sqrt(n() - 1), n = n()) %>%
  ungroup() %>%
  group_by(label, strain) %>%
  mutate(mean_lfc = mean_lfc - median(mean_lfc)) %>%
  ungroup() %>%
  # arrange init_mutation in correct_order
  mutate(init = fct_reorder(init, initiationmutation_order[init])) %>%
  print()
```

    ## # A tibble: 324 x 6
    ##    label  strain init  mean_lfc  se_lfc     n
    ##    <chr>  <chr>  <fct>    <dbl>   <dbl> <int>
    ##  1 10×aag ASC1Δ  AAAA   -0.198  0.0777      4
    ##  2 10×aag ASC1Δ  ACGC    0.0668 0.00600     3
    ##  3 10×aag ASC1Δ  CAAA    0      0.0123      4
    ##  4 10×aag ASC1Δ  CCAA   -0.410  0.0146      4
    ##  5 10×aag ASC1Δ  CCAC    0.357  0.0839      3
    ##  6 10×aag ASC1Δ  CCGA    0.312  0.0213      4
    ##  7 10×aag ASC1Δ  CCGC   -0.0598 0.0398      4
    ##  8 10×aag ASC1Δ  CTG    -1.71   0.0168      3
    ##  9 10×aag ASC1Δ  CTGC    0.241  0.00870     4
    ## 10 10×aag BY4741 AAAA   -0.579  0.00278     4
    ## # ... with 314 more rows
…
